<?xml version="1.0" encoding="utf-8"?>
<!-- Generator: Adobe Illustrator 18.1.0, SVG Export Plug-In . SVG Version: 6.00 Build 0)  -->
<svg version="1.1" xmlns="http://www.w3.org/2000/svg" xmlns:xlink="http://www.w3.org/1999/xlink" x="0px" y="0px"
	 viewBox="0 0 364.5 244.5" enable-background="new 0 0 364.5 244.5" xml:space="preserve">
<g id="Wireframe" display="none">
</g>
<g id="Backgrounds">
</g>
<g id="Layer_6">
</g>
<g id="Text__x26__Info">
</g>
<g id="Rollover_States">
</g>
<g id="Lightbox">
</g>
<g id="Layer_7">
</g>
<g id="Navigation">
</g>
<g id="Layer_1">
	<g>
		<path fill="#231F20" d="M22.2,103.2l3.8,26.5c3.6-0.5,9.7-1.9,7.8-14.7C32,102.3,25.8,102.7,22.2,103.2 M43.6,178.1l-12.3-36.7
			l-3.5,0.5l5.4,37.7l-13.1,1.9L7.2,92.1l13.1-1.9C35.9,87.9,44,96,46.4,112.7c1.3,8.9,0.1,17.2-4.4,21.4l14.6,42.1L43.6,178.1z"/>
		<path fill="#231F20" d="M78.4,112.9l-0.6-2.3l-0.7,0.1l-0.2,2.4l-1.2,28.7l9.1-0.8L78.4,112.9z M61.6,175.6l5.3-91.2L83,82.9
			l21.8,88.7L92,172.8l-4.1-18.1l-12.7,1.2l-0.8,18.6L61.6,175.6z"/>
		<path fill="#231F20" d="M122,93.5l1.3,26.8c3.7-0.2,9.8-1,9.2-13.8C131.9,93.5,125.7,93.3,122,93.5 M136.1,170.1l-8.7-37.7
			l-3.6,0.2l1.8,38.1l-13.3,0.6L108.2,81l13.3-0.6c15.7-0.7,23,8,23.8,25c0.4,9-1.5,17.2-6.4,20.8l10.5,43.3L136.1,170.1z"/>
		<polygon fill="#231F20" points="157.4,79 187.7,78.7 187.9,92.4 170.8,92.5 171,116.2 183.3,116.1 183.5,130.6 171.2,130.7 
			171.4,155.6 188.5,155.4 188.7,169 158.3,169.3 		"/>
		<path fill="#231F20" d="M212.9,92.3l-0.6,24.1c2.5,0.1,9.8,0.6,10.1-11.8C222.7,92.2,215.3,92.3,212.9,92.3 M211.9,128.5
			l-0.7,27.8c2.5,0.1,9.8,1.2,10.2-13.6C221.8,127.8,214.4,128.6,211.9,128.5 M197.6,169.1l2.4-90.3c0,0,6.6,0.2,11.7,0.3
			c15.8,0.4,24,6.6,23.6,24.6c-0.2,8.4-2.2,13.1-8.7,18.5c0,0,9.1,4.4,8.6,22.4c-0.3,13.3-5.3,24.8-21.2,25L197.6,169.1z"/>
		
			<rect x="246.6" y="80.8" transform="matrix(-0.9983 -5.749764e-02 5.749764e-02 -0.9983 498.7335 266.2019)" fill="#231F20" width="13.3" height="90.3"/>
		<path fill="#231F20" d="M288.9,96.4l-2.5,26.7c3.7,0.3,9.8,0.4,11-12.4C298.7,97.8,292.6,96.8,288.9,96.4 M292.3,174.2l-3.4-38.6
			l-3.5-0.3l-3.5,37.9l-13.2-1.2l8.3-90l13.2,1.2c15.7,1.4,21.7,11.1,20.1,28c-0.8,8.9-3.9,16.8-9.2,19.8l4.4,44.3L292.3,174.2z"/>
		<path fill="#231F20" d="M329,165.2c9.2,1.3,10.2-0.9,14.3-30.2c4.3-29.2,4.1-31.6-5.2-32.9L329,165.2z M324.4,178l-10.3-1.5
			l12.9-89.4l10.3,1.5c24.3,3.6,24.7,13.5,19.7,48.5C351.9,172,348.7,181.3,324.4,178"/>
		<path fill="#231F20" d="M78.4,214.6c0,1.5,0.9,2.6,2.4,2.6c2.8,0,4.3-3,4.3-5.5c0-1.7-0.6-3.4-2.6-3.4
			C79.7,208.3,78.4,212.2,78.4,214.6 M78.1,205.7c0.1-0.7,0.4-2.1,0.4-2.8c0-1-1-0.6-1-1.1c0-0.7,2-1.7,2.7-1.7
			c0.3,0,0.5,0.2,0.5,0.5c0,0.5-0.6,3.5-1.2,6.8c-0.1,0.5-0.2,1-0.3,1.5c0.9-1.3,2.2-2.2,3.9-2.2c2.7,0,4.1,2,4.1,4.5
			c0,3.5-2.8,7-6.4,7c-1,0-2.2-0.4-2.8-1.3c-0.3,0.3-1,1.2-1.5,1.2c-0.3,0-0.4-0.2-0.4-0.4c0-0.5,0.2-1.5,0.4-2.2L78.1,205.7z"/>
		<path fill="#231F20" d="M93.1,218.4c-1.8,0-3.2-1.6-3.2-6.7c0-1.2,0.2-1.9,0.2-2.7c0-0.6-1-0.4-1-0.8c0-0.6,2.1-1.3,2.7-1.3
			c0.4,0,0.5,0.2,0.5,0.6c0,0.3-0.5,2.4-0.5,4.5c0,1.4,0.3,5.1,2.2,5.1c1.1,0,1.9-1.7,2.4-2.5c0.5-1,1.3-3,1.3-4.2
			c0-1.1-0.9-1.3-0.9-2.2c0-0.6,0.4-1.3,1.1-1.3c1,0,1.2,1.3,1.2,2c0,2.7-1.5,6.2-2.9,8.4c-1.2,1.8-4.4,5.4-6.6,5.4
			c-0.6,0-1.2-0.4-1.2-1c0-0.6,0.6-1,1.1-1c0.5,0,0.7,0.3,1.2,0.3c1.1,0,3.2-2.2,3.9-3.1C94,218.1,93.5,218.4,93.1,218.4"/>
		<path fill="#231F20" d="M117.7,209.8c2.3-0.3,5.3-1.3,5.3-4.1c0-2-1.4-3.2-3.4-3.2c-1.4,0-1.9,0.4-1.9,1.8V209.8z M117.7,215.1
			c0,0.7,0,1.1,0.7,1.4c0.7,0.3,0.9,0.4,0.9,0.8c0,0.6-0.6,0.8-1.2,0.8h-4.9c-0.5,0-1.2-0.2-1.2-0.8c0-0.4,0.3-0.6,0.6-0.7
			c0.6-0.3,0.7-0.6,0.7-1.5v-11.4c0-0.9,0-1.3-0.5-1.4c-0.6-0.2-0.7-0.4-0.7-0.8c0-0.6,0.6-0.8,1.2-0.8h7.3c5.7,0,7,2.7,7,4.7
			c0,2.6-2.1,5.9-9.9,6.1V215.1z"/>
		<path fill="#231F20" d="M138.7,210.6c-0.8-2.3-1.6-4.4-2.6-6.3c-1,2-1.8,3.9-2.7,6.3H138.7z M132.7,212.5
			c-0.7,1.8-0.9,2.6-0.9,3.2c0,1,1.2,0.8,1.2,1.7c0,0.7-0.8,0.8-1.5,0.8h-1.9c-0.7,0-1.4,0-1.4-0.8c0-0.3,0.2-0.5,0.5-0.7
			c0.4-0.2,0.5-0.3,0.7-0.8c1.2-4.5,3.3-9.5,5.9-14.4c0.5-0.8,0.8-0.9,1.9-0.9c1.2,0,1.2,0.1,1.7,1c2.5,4.8,4.3,9.5,5.9,14.4
			c0.1,0.3,0.3,0.5,0.7,0.8c0.3,0.2,0.4,0.3,0.4,0.7c0,0.7-0.6,0.8-1.2,0.8h-4c-0.5,0-1.4,0-1.4-0.8c0-0.8,1-0.7,1-1.2
			c0-0.4-0.1-1.1-1.1-3.7H132.7z"/>
		<path fill="#231F20" d="M154.8,209.1c2.2,0,5.6-0.9,5.6-3.7c0-2.1-1.6-2.9-3.4-2.9c-2,0-2.1,0.7-2.1,2V209.1z M154.8,215.1
			c0,0.7,0,1.1,0.5,1.4c0.5,0.3,0.8,0.4,0.8,0.8c0,0.6-0.6,0.8-1.2,0.8h-4.5c-0.5,0-1.2-0.2-1.2-0.8c0-0.4,0.3-0.6,0.6-0.7
			c0.6-0.3,0.7-0.6,0.7-1.5v-11.4c0-0.9,0-1.3-0.5-1.4c-0.6-0.2-0.7-0.4-0.7-0.8c0-0.6,0.6-0.8,1.2-0.8h8.4c1.3,0,2.8,0,3.9,0.6
			c1.3,0.7,2.2,2,2.2,3.5c0,2.2-1.7,3.7-3.6,4.6c1.5,1.7,2.5,3.7,3.3,5.8c0.3,0.7,0.5,1.1,1.1,1.4c0.3,0.2,0.6,0.3,0.6,0.7
			c0,0.6-0.8,0.7-1.2,0.7h-4.7c-0.6,0-1.4,0-1.4-0.8c0-0.7,1-0.6,1-1.3c0-1.2-2-4.5-2.9-5.5c-0.5,0.1-1.4,0.3-2.4,0.4V215.1z"/>
		<path fill="#231F20" d="M175,209.1c2.2,0,5.6-0.9,5.6-3.7c0-2.1-1.6-2.9-3.4-2.9c-2,0-2.1,0.7-2.1,2V209.1z M175,215.1
			c0,0.7,0,1.1,0.5,1.4c0.5,0.3,0.8,0.4,0.8,0.8c0,0.6-0.6,0.8-1.2,0.8h-4.5c-0.5,0-1.2-0.2-1.2-0.8c0-0.4,0.3-0.6,0.6-0.7
			c0.6-0.3,0.7-0.6,0.7-1.5v-11.4c0-0.9,0-1.3-0.5-1.4c-0.6-0.2-0.7-0.4-0.7-0.8c0-0.6,0.6-0.8,1.2-0.8h8.4c1.3,0,2.8,0,3.9,0.6
			c1.3,0.7,2.2,2,2.2,3.5c0,2.2-1.7,3.7-3.6,4.6c1.5,1.7,2.5,3.7,3.3,5.8c0.3,0.7,0.5,1.1,1.1,1.4c0.3,0.2,0.6,0.3,0.6,0.7
			c0,0.6-0.8,0.7-1.2,0.7h-4.7c-0.6,0-1.4,0-1.4-0.8c0-0.7,1-0.6,1-1.3c0-1.2-2-4.5-2.9-5.5c-0.5,0.1-1.4,0.3-2.4,0.4V215.1z"/>
		<path fill="#231F20" d="M203.3,209.5c0-3-1-7.3-4.8-7.3c-3,0-4.8,3.2-4.8,7.1c0,2.9,1,7.4,4.8,7.4
			C202.2,216.7,203.3,212.6,203.3,209.5 M189,209.4c0-5.3,4.2-9,9.4-9c5.2,0,9.5,3.6,9.5,9c0,5.3-4.4,9.1-9.6,9.1
			C193.8,218.5,189,215.4,189,209.4"/>
		<path fill="#231F20" d="M216.2,203.8c0-1,0-1.3-1-1.3c-2.7,0-2.9,2-4,2c-0.6,0-0.8-0.4-0.8-0.9c0-0.3,0.1-0.5,0.2-1.4
			c0.3-1.5,0.5-1.5,1.6-1.5h12.2c1.1,0,1.3,0,1.6,1.5c0.1,0.8,0.2,1.1,0.2,1.4c0,0.5-0.2,0.9-0.8,0.9c-1.1,0-1.3-2-4-2
			c-0.9,0-1,0.3-1,1.3v11.3c0,0.7,0,1.1,0.5,1.4c0.5,0.3,0.8,0.4,0.8,0.8c0,0.6-0.6,0.8-1.2,0.8h-4.5c-0.5,0-1.2-0.2-1.2-0.8
			c0-0.4,0.3-0.6,0.6-0.7c0.6-0.3,0.7-0.6,0.7-1.5V203.8z"/>
		<path fill="#231F20" d="M234.9,214.2c0,1.7,0,2.3,1.8,2.3c4,0,5.9-3.2,5.9-6.9c0-3.8-2-7.2-6.1-7.2c-1.7,0-1.7,0.5-1.7,2V214.2z
			 M237.4,200.8c2.5,0,4.8,0.3,6.8,1.9c2.1,1.7,3.1,4,3.1,6.7c0,2.4-0.7,4.7-2.4,6.4c-1.8,1.8-4.2,2.4-6.7,2.4h-7.7
			c-0.5,0-1.2-0.2-1.2-0.8c0-0.4,0.3-0.6,0.6-0.7c0.6-0.3,0.7-0.6,0.7-1.5v-11.4c0-0.9,0-1.3-0.5-1.4c-0.6-0.2-0.7-0.4-0.7-0.8
			c0-0.6,0.6-0.8,1.2-0.8H237.4z"/>
		<path fill="#231F20" d="M265.4,209.5c0-3-1-7.3-4.8-7.3c-3,0-4.8,3.2-4.8,7.1c0,2.9,1,7.4,4.8,7.4
			C264.3,216.7,265.4,212.6,265.4,209.5 M251.1,209.4c0-5.3,4.2-9,9.4-9c5.2,0,9.5,3.6,9.5,9c0,5.3-4.4,9.1-9.6,9.1
			C255.9,218.5,251.1,215.4,251.1,209.4"/>
		<path fill="#231F20" d="M288.6,209c2.1,0,2.3,0.3,2.3,0.8c0,0.5-0.3,1.2-0.3,2.8c0,1.5,0.3,2.5,0.3,2.8c0,0.8-0.9,1.5-2.9,2.2
			c-1.7,0.6-3,1-4.9,1c-5.3,0-9.6-3.2-9.6-8.8c0-5.7,4.5-9.3,10-9.3c1.7,0,3.9,0.4,5.4,1.3c0.4,0.2,0.8,0.5,1,0.9
			c0.2,0.4,0.2,1.6,0.2,2.1c0,1.2-0.4,1.4-0.9,1.4c-0.5,0-0.8-0.4-0.9-0.8c-0.8-1.9-2.3-3-4.3-3c-4,0-5.8,4-5.8,7.4
			c0,3,1.6,6.9,5.2,6.9c0.8,0,1.9-0.2,2.5-0.9c0.7-0.7,0.7-1.9,0.7-2.8c0-1.5-0.1-2-1.8-2c-1.2,0-1.9,0-1.9-0.9c0-0.8,0.7-1,1.8-1
			H288.6z"/>
		<path fill="#231F20" d="M215.8,52.3c-11.2,0-20.3-9.1-20.3-20.3s9.1-20.3,20.3-20.3c11.2,0,20.3,9.1,20.3,20.3
			S227,52.3,215.8,52.3 M183.2,19c-3.1,0-5.6-2.5-5.6-5.6c0-3.1,2.5-5.6,5.6-5.6c3.1,0,5.6,2.5,5.6,5.6
			C188.9,16.5,186.4,19,183.2,19 M150.7,52.3c-11.2,0-20.3-9.1-20.3-20.3s9.1-20.3,20.3-20.3c11.2,0,20.3,9.1,20.3,20.3
			S161.9,52.3,150.7,52.3 M215.8,5.3c-0.1,0-0.3,0-0.4,0c-0.2,0-0.4,0-0.6,0c-7.2,0-14.7,1.8-20.8,4.8c-1.4-4.6-5.7-8-10.8-8
			c-5.1,0-9.4,3.4-10.8,8c-6.1-3-13.6-4.8-20.8-4.8c-0.2,0-0.4,0-0.6,0c-0.1,0-0.3,0-0.4,0C136,5.3,124,17.2,124,32
			s12,26.7,26.7,26.7c9.5,0,17.9-5,22.6-12.5c0,0,0.1-0.1,0.1-0.2c2.1-3.3,5.7-5.4,9.8-5.4c4.2,0,7.9,2.2,9.9,5.6
			c0.1,0.1,0.2,0.2,0.3,0.4c4.8,7.3,13,12.1,22.3,12.1c14.7,0,26.7-12,26.7-26.7S230.5,5.3,215.8,5.3"/>
		<path fill="#231F20" d="M150.7,15.7c-9,0-16.3,7.3-16.3,16.2c0,1.1,0.9,1.9,1.9,1.9c1.1,0,2-0.9,2-1.9c0-6.8,5.5-12.4,12.4-12.4
			c1.1,0,1.9-0.9,1.9-1.9C152.6,16.6,151.8,15.7,150.7,15.7"/>
		<path fill="#231F20" d="M215.8,15.7c-9,0-16.3,7.3-16.3,16.2c0,1.1,0.9,1.9,1.9,1.9c1.1,0,1.9-0.9,1.9-1.9
			c0-6.8,5.5-12.4,12.4-12.4c1.1,0,1.9-0.9,1.9-1.9C217.8,16.6,216.9,15.7,215.8,15.7"/>
	</g>
</g>
</svg>
