<?xml version="1.0" encoding="utf-8"?>
<!-- Generator: Adobe Illustrator 18.1.0, SVG Export Plug-In . SVG Version: 6.00 Build 0)  -->
<svg version="1.1" id="Layer_1" xmlns="http://www.w3.org/2000/svg" xmlns:xlink="http://www.w3.org/1999/xlink" x="0px" y="0px"
	 viewBox="0 0 523 135.904" enable-background="new 0 0 523 135.904" xml:space="preserve">
<g>
	<g>
		<path fill="#C2B59B" d="M30.641,125.253c-0.096,0.232-0.172,0.432-0.229,0.6c-0.056,0.168-0.102,0.314-0.138,0.438
			c-0.036,0.125-0.06,0.232-0.072,0.324c-0.012,0.092-0.018,0.174-0.018,0.246c0,0.136,0.032,0.234,0.096,0.294
			c0.064,0.06,0.136,0.114,0.216,0.162c0.08,0.048,0.152,0.098,0.217,0.15c0.063,0.052,0.096,0.134,0.096,0.246
			c0,0.096-0.022,0.17-0.066,0.222c-0.044,0.052-0.104,0.09-0.18,0.114s-0.16,0.038-0.252,0.042s-0.187,0.006-0.282,0.006h-0.983
			c-0.089,0-0.175-0.002-0.259-0.006s-0.157-0.02-0.222-0.048c-0.064-0.028-0.114-0.07-0.15-0.126
			c-0.035-0.056-0.054-0.132-0.054-0.228c0-0.088,0.026-0.158,0.078-0.21c0.052-0.052,0.11-0.102,0.174-0.15
			c0.097-0.064,0.17-0.116,0.223-0.156c0.052-0.04,0.098-0.116,0.138-0.228c0.312-1.136,0.72-2.318,1.224-3.546
			c0.504-1.228,1.096-2.474,1.776-3.738c0.056-0.104,0.109-0.186,0.162-0.246c0.052-0.06,0.113-0.104,0.186-0.132
			c0.072-0.028,0.158-0.046,0.258-0.054c0.101-0.008,0.227-0.012,0.378-0.012c0.152,0,0.272,0.004,0.36,0.012
			c0.088,0.008,0.158,0.03,0.21,0.066c0.052,0.036,0.098,0.086,0.138,0.15s0.089,0.148,0.145,0.252
			c0.632,1.208,1.184,2.41,1.656,3.606c0.472,1.196,0.92,2.414,1.344,3.654c0.04,0.144,0.16,0.272,0.36,0.384
			c0.071,0.04,0.127,0.086,0.168,0.138c0.039,0.052,0.06,0.122,0.06,0.21c0,0.176-0.066,0.288-0.198,0.336
			c-0.132,0.048-0.27,0.072-0.414,0.072h-2.027c-0.072,0-0.15-0.002-0.234-0.006s-0.162-0.018-0.234-0.042
			c-0.071-0.024-0.134-0.062-0.186-0.114c-0.052-0.052-0.078-0.126-0.078-0.222c0-0.096,0.026-0.168,0.078-0.216
			c0.052-0.048,0.112-0.09,0.18-0.126c0.068-0.036,0.128-0.072,0.181-0.108c0.052-0.036,0.077-0.09,0.077-0.162
			c0-0.048-0.006-0.11-0.018-0.186c-0.012-0.076-0.038-0.184-0.078-0.324s-0.094-0.318-0.162-0.534
			c-0.067-0.216-0.162-0.484-0.281-0.804H30.641z M33.664,124.27c-0.199-0.576-0.407-1.13-0.624-1.662
			c-0.216-0.532-0.451-1.038-0.708-1.518c-0.256,0.504-0.491,1.008-0.708,1.512c-0.216,0.504-0.432,1.06-0.647,1.668H33.664z"/>
		<path fill="#C2B59B" d="M39.845,122.326c0.151-0.008,0.292,0.01,0.42,0.054s0.191,0.154,0.191,0.33
			c0,0.104-0.021,0.178-0.065,0.222s-0.092,0.082-0.145,0.114c-0.052,0.032-0.1,0.068-0.144,0.108s-0.066,0.104-0.066,0.192
			c0,0.144,0.026,0.356,0.078,0.636c0.052,0.28,0.122,0.586,0.21,0.918c0.088,0.333,0.196,0.67,0.324,1.014
			c0.128,0.344,0.271,0.652,0.432,0.924c0.24-0.472,0.42-0.944,0.54-1.416c0.12-0.472,0.181-0.972,0.181-1.5
			c0-0.184-0.011-0.348-0.03-0.492c-0.021-0.144-0.106-0.276-0.258-0.396c-0.064-0.056-0.116-0.11-0.156-0.162
			c-0.04-0.052-0.06-0.122-0.06-0.21c0-0.152,0.063-0.246,0.191-0.282c0.128-0.036,0.248-0.054,0.36-0.054h1.584
			c0.072,0,0.146,0.002,0.222,0.006c0.076,0.004,0.146,0.018,0.21,0.042s0.116,0.06,0.156,0.108c0.04,0.048,0.06,0.12,0.06,0.216
			c0,0.096-0.021,0.166-0.065,0.21s-0.09,0.082-0.139,0.114c-0.048,0.032-0.094,0.068-0.138,0.108s-0.065,0.108-0.065,0.204
			c0,0.152,0.023,0.362,0.071,0.63s0.116,0.562,0.204,0.882s0.2,0.654,0.336,1.002s0.288,0.678,0.456,0.99
			c0.104-0.192,0.214-0.43,0.33-0.714c0.116-0.284,0.224-0.578,0.324-0.882c0.1-0.304,0.182-0.604,0.246-0.9
			c0.063-0.296,0.096-0.548,0.096-0.756c0-0.168-0.028-0.288-0.084-0.36c-0.056-0.072-0.118-0.13-0.186-0.174
			c-0.068-0.044-0.131-0.092-0.187-0.144c-0.056-0.052-0.084-0.138-0.084-0.258c0-0.152,0.072-0.244,0.216-0.276
			c0.145-0.032,0.292-0.048,0.444-0.048h0.624c0.08,0,0.164,0.002,0.252,0.006c0.088,0.004,0.168,0.018,0.24,0.042
			c0.071,0.024,0.132,0.058,0.18,0.102s0.072,0.106,0.072,0.186c0,0.072-0.017,0.134-0.048,0.186
			c-0.032,0.052-0.072,0.106-0.12,0.162c-0.04,0.04-0.074,0.076-0.103,0.108c-0.027,0.032-0.054,0.07-0.078,0.114
			c-0.023,0.044-0.05,0.096-0.077,0.156c-0.028,0.06-0.055,0.138-0.078,0.234c-0.128,0.456-0.261,0.914-0.396,1.374
			s-0.278,0.888-0.426,1.284c-0.148,0.396-0.298,0.746-0.45,1.05c-0.152,0.304-0.308,0.532-0.468,0.684
			c-0.112,0.112-0.232,0.184-0.36,0.216c-0.128,0.032-0.268,0.048-0.42,0.048c-0.216,0-0.39-0.024-0.521-0.072
			s-0.267-0.16-0.402-0.336c-0.208-0.28-0.384-0.594-0.528-0.942c-0.144-0.348-0.279-0.69-0.407-1.026
			c-0.129,0.336-0.267,0.668-0.414,0.996c-0.148,0.328-0.326,0.636-0.534,0.924c-0.128,0.176-0.256,0.296-0.384,0.36
			c-0.129,0.064-0.301,0.096-0.517,0.096c-0.191,0-0.352-0.02-0.479-0.06s-0.238-0.102-0.33-0.186s-0.174-0.19-0.246-0.318
			s-0.148-0.28-0.229-0.456c-0.239-0.488-0.47-1.042-0.689-1.662c-0.221-0.62-0.391-1.298-0.51-2.034
			c-0.017-0.112-0.034-0.2-0.055-0.264c-0.02-0.064-0.054-0.116-0.102-0.156c-0.064-0.056-0.13-0.118-0.198-0.186
			c-0.068-0.068-0.102-0.154-0.102-0.258c0-0.168,0.06-0.272,0.18-0.312s0.248-0.06,0.384-0.06H39.845z"/>
		<path fill="#C2B59B" d="M53.681,126.454c0,0.144,0.002,0.262,0.006,0.354c0.004,0.092,0.014,0.17,0.03,0.234
			c0.016,0.064,0.038,0.116,0.066,0.156c0.027,0.04,0.069,0.072,0.126,0.096c0.136,0.064,0.235,0.125,0.3,0.18
			c0.063,0.056,0.096,0.136,0.096,0.24c0,0.096-0.02,0.17-0.06,0.222c-0.04,0.052-0.093,0.09-0.156,0.114
			c-0.064,0.024-0.134,0.038-0.21,0.042s-0.15,0.006-0.222,0.006H52.4c-0.152,0-0.27-0.014-0.35-0.042
			c-0.081-0.028-0.14-0.072-0.176-0.132s-0.059-0.136-0.066-0.228s-0.012-0.206-0.012-0.342c-0.208,0.336-0.479,0.574-0.811,0.714
			c-0.332,0.14-0.682,0.21-1.05,0.21c-0.28,0-0.55-0.038-0.81-0.114c-0.26-0.076-0.49-0.192-0.69-0.348
			c-0.2-0.156-0.359-0.35-0.479-0.582s-0.181-0.504-0.181-0.816c0-0.424,0.12-0.774,0.36-1.05s0.536-0.494,0.888-0.654
			c0.353-0.16,0.73-0.27,1.135-0.33c0.403-0.06,0.77-0.09,1.098-0.09h0.408c0-0.36-0.09-0.66-0.271-0.9
			c-0.18-0.24-0.462-0.36-0.846-0.36c-0.185,0-0.334,0.04-0.45,0.12s-0.228,0.168-0.336,0.264c-0.107,0.096-0.222,0.184-0.342,0.264
			s-0.276,0.12-0.468,0.12c-0.177,0-0.345-0.044-0.504-0.132c-0.16-0.088-0.24-0.236-0.24-0.444s0.102-0.378,0.306-0.51
			c0.204-0.132,0.442-0.234,0.714-0.306c0.272-0.072,0.548-0.12,0.828-0.144s0.492-0.036,0.636-0.036
			c1.043,0,1.802,0.212,2.276,0.636s0.712,0.988,0.712,1.692V126.454z M51.509,125.05c-0.216,0-0.426,0.026-0.63,0.078
			c-0.204,0.052-0.386,0.136-0.546,0.252c-0.16,0.116-0.29,0.26-0.391,0.432c-0.1,0.172-0.149,0.378-0.149,0.618
			c0,0.232,0.063,0.434,0.191,0.606c0.128,0.172,0.316,0.258,0.564,0.258c0.2,0,0.376-0.056,0.528-0.168
			c0.151-0.112,0.283-0.248,0.396-0.408c0.064-0.104,0.112-0.19,0.145-0.258c0.031-0.068,0.056-0.154,0.071-0.258
			c0.017-0.104,0.026-0.244,0.03-0.42s0.006-0.42,0.006-0.732H51.509z"/>
		<path fill="#C2B59B" d="M55.816,124.282c0-0.144-0.036-0.286-0.107-0.426c-0.072-0.14-0.205-0.254-0.396-0.342
			c-0.088-0.04-0.164-0.088-0.229-0.144c-0.064-0.056-0.096-0.14-0.096-0.252c0-0.072,0.02-0.138,0.061-0.198
			c0.039-0.06,0.09-0.11,0.149-0.15s0.124-0.076,0.192-0.108c0.067-0.032,0.13-0.06,0.186-0.084
			c0.064-0.024,0.152-0.056,0.264-0.096c0.112-0.04,0.232-0.078,0.36-0.114s0.25-0.068,0.366-0.096
			c0.116-0.028,0.206-0.042,0.27-0.042c0.185,0,0.334,0.098,0.45,0.294c0.116,0.196,0.194,0.514,0.234,0.954
			c0.072-0.144,0.162-0.29,0.27-0.438c0.108-0.148,0.23-0.282,0.366-0.402s0.282-0.218,0.438-0.294
			c0.155-0.076,0.321-0.114,0.498-0.114c0.256,0,0.47,0.084,0.642,0.252s0.258,0.38,0.258,0.636c0,0.096-0.014,0.192-0.042,0.288
			c-0.028,0.096-0.068,0.184-0.12,0.264c-0.052,0.08-0.118,0.146-0.197,0.198c-0.08,0.052-0.173,0.078-0.276,0.078
			c-0.16,0-0.302-0.026-0.426-0.078c-0.124-0.052-0.25-0.078-0.378-0.078c-0.064,0-0.141,0.022-0.229,0.066
			c-0.088,0.044-0.174,0.13-0.258,0.258s-0.154,0.306-0.21,0.534c-0.057,0.228-0.084,0.522-0.084,0.882v0.948
			c0,0.16,0.002,0.288,0.006,0.384c0.004,0.096,0.016,0.174,0.036,0.234c0.02,0.06,0.052,0.108,0.096,0.144s0.106,0.074,0.187,0.114
			c0.079,0.04,0.147,0.086,0.204,0.138c0.056,0.052,0.084,0.126,0.084,0.222c0,0.096-0.021,0.17-0.061,0.222
			c-0.04,0.052-0.092,0.09-0.156,0.114c-0.063,0.024-0.134,0.038-0.21,0.042s-0.149,0.006-0.222,0.006h-1.884
			c-0.072,0-0.146-0.002-0.222-0.006c-0.076-0.004-0.146-0.018-0.211-0.042c-0.063-0.024-0.115-0.062-0.156-0.114
			c-0.039-0.052-0.06-0.126-0.06-0.222c0-0.096,0.028-0.17,0.084-0.222c0.056-0.052,0.124-0.098,0.204-0.138
			c0.072-0.032,0.128-0.064,0.168-0.096c0.04-0.032,0.072-0.078,0.096-0.138c0.024-0.06,0.04-0.14,0.049-0.24
			c0.008-0.1,0.012-0.234,0.012-0.402V124.282z"/>
		<path fill="#C2B59B" d="M65.297,121.486c0-0.264-0.005-0.474-0.013-0.63c-0.008-0.156-0.025-0.278-0.054-0.366
			s-0.068-0.154-0.12-0.198c-0.052-0.044-0.118-0.09-0.198-0.138c-0.071-0.04-0.14-0.082-0.204-0.126
			c-0.063-0.044-0.096-0.114-0.096-0.21c0-0.112,0.044-0.196,0.132-0.252c0.088-0.056,0.236-0.116,0.444-0.18
			c0.128-0.032,0.264-0.07,0.408-0.114c0.144-0.044,0.288-0.086,0.432-0.126c0.145-0.04,0.278-0.072,0.402-0.096
			s0.233-0.036,0.33-0.036c0.12,0,0.214,0.038,0.282,0.114c0.067,0.076,0.115,0.172,0.144,0.288
			c0.028,0.116,0.046,0.244,0.054,0.384s0.013,0.27,0.013,0.39v6.264c0,0.304,0.02,0.512,0.06,0.624
			c0.04,0.112,0.128,0.2,0.264,0.264c0.088,0.04,0.16,0.086,0.217,0.138c0.056,0.052,0.084,0.13,0.084,0.234
			c0,0.096-0.021,0.17-0.061,0.222c-0.04,0.052-0.092,0.09-0.156,0.114c-0.063,0.024-0.134,0.038-0.21,0.042
			s-0.149,0.006-0.222,0.006h-1.224c-0.16,0-0.282-0.014-0.366-0.042c-0.084-0.028-0.145-0.072-0.181-0.132
			c-0.035-0.06-0.058-0.136-0.065-0.228s-0.012-0.206-0.012-0.342c-0.208,0.344-0.462,0.584-0.763,0.72
			c-0.3,0.136-0.634,0.204-1.002,0.204c-0.408,0-0.782-0.076-1.122-0.228s-0.634-0.36-0.882-0.624
			c-0.248-0.264-0.439-0.574-0.576-0.93c-0.136-0.356-0.204-0.738-0.204-1.146c0-0.44,0.076-0.85,0.229-1.23
			c0.151-0.38,0.364-0.71,0.636-0.99c0.272-0.28,0.596-0.5,0.973-0.66c0.375-0.16,0.783-0.24,1.224-0.24
			c0.271,0,0.516,0.032,0.731,0.096c0.217,0.064,0.44,0.164,0.673,0.3V121.486z M65.297,124.354c0-0.16-0.015-0.314-0.042-0.462
			c-0.028-0.148-0.099-0.29-0.21-0.426c-0.097-0.112-0.215-0.2-0.354-0.264s-0.286-0.096-0.438-0.096
			c-0.265,0-0.484,0.072-0.66,0.216c-0.177,0.144-0.314,0.324-0.414,0.54c-0.101,0.216-0.17,0.45-0.21,0.702
			s-0.061,0.486-0.061,0.702c0,0.208,0.019,0.432,0.055,0.672c0.035,0.24,0.1,0.462,0.191,0.666s0.223,0.374,0.391,0.51
			s0.384,0.204,0.647,0.204c0.184,0,0.358-0.044,0.522-0.132c0.163-0.088,0.298-0.212,0.401-0.372
			c0.088-0.136,0.141-0.271,0.156-0.408s0.024-0.284,0.024-0.444V124.354z"/>
		<path fill="#C2B59B" d="M75.413,119.314c0.144,0,0.279,0.024,0.407,0.072s0.192,0.164,0.192,0.348c0,0.096-0.03,0.172-0.09,0.228
			c-0.061,0.056-0.13,0.104-0.21,0.144c-0.128,0.064-0.212,0.126-0.252,0.186s-0.061,0.162-0.061,0.306
			c0,0.192,0.032,0.5,0.097,0.924c0.063,0.424,0.155,0.9,0.275,1.428s0.262,1.076,0.426,1.644s0.347,1.096,0.546,1.584
			c0.328-0.832,0.603-1.664,0.822-2.496s0.33-1.696,0.33-2.592c0-0.184-0.006-0.332-0.018-0.444
			c-0.013-0.112-0.032-0.204-0.061-0.276c-0.028-0.072-0.063-0.128-0.107-0.168s-0.099-0.084-0.162-0.132
			c-0.064-0.048-0.126-0.096-0.187-0.144c-0.06-0.048-0.09-0.12-0.09-0.216c0-0.088,0.019-0.158,0.054-0.21
			c0.036-0.052,0.084-0.092,0.145-0.12c0.06-0.028,0.124-0.046,0.192-0.054c0.067-0.008,0.138-0.012,0.21-0.012h2.172
			c0.151,0,0.281,0.026,0.39,0.078c0.108,0.052,0.162,0.166,0.162,0.342c0,0.104-0.032,0.178-0.096,0.222
			c-0.064,0.044-0.133,0.088-0.204,0.132c-0.072,0.044-0.141,0.1-0.204,0.168c-0.064,0.068-0.096,0.174-0.096,0.318
			c0,0.112,0.02,0.292,0.06,0.54s0.098,0.534,0.174,0.858s0.164,0.676,0.264,1.056c0.101,0.38,0.212,0.76,0.337,1.14
			c0.123,0.38,0.256,0.749,0.396,1.104c0.14,0.356,0.286,0.67,0.438,0.942c0.239-0.56,0.445-1.122,0.617-1.686
			s0.314-1.09,0.427-1.578c0.111-0.488,0.193-0.918,0.246-1.29c0.052-0.372,0.077-0.654,0.077-0.846c0-0.208-0.042-0.358-0.126-0.45
			s-0.174-0.164-0.27-0.216c-0.096-0.052-0.187-0.106-0.271-0.162c-0.084-0.056-0.126-0.152-0.126-0.288
			c0-0.096,0.024-0.17,0.072-0.222c0.048-0.052,0.11-0.09,0.187-0.114c0.075-0.024,0.165-0.038,0.27-0.042
			c0.104-0.004,0.216-0.006,0.336-0.006h1.056c0.128,0,0.259,0.022,0.391,0.066s0.198,0.146,0.198,0.306
			c0,0.08-0.024,0.148-0.072,0.204c-0.048,0.056-0.096,0.108-0.145,0.156c-0.063,0.056-0.118,0.102-0.161,0.138
			c-0.045,0.036-0.083,0.076-0.114,0.12c-0.032,0.044-0.059,0.096-0.078,0.156c-0.021,0.06-0.038,0.138-0.054,0.234
			c-0.137,0.984-0.309,1.894-0.517,2.73s-0.418,1.572-0.63,2.208c-0.212,0.636-0.41,1.158-0.594,1.566
			c-0.185,0.408-0.32,0.672-0.408,0.792c-0.096,0.136-0.214,0.218-0.354,0.246c-0.141,0.028-0.307,0.042-0.498,0.042
			c-0.16,0-0.293-0.006-0.396-0.018c-0.104-0.012-0.192-0.04-0.264-0.084c-0.072-0.044-0.139-0.104-0.198-0.18
			c-0.06-0.076-0.126-0.182-0.198-0.318c-0.352-0.624-0.64-1.278-0.863-1.962c-0.225-0.684-0.448-1.362-0.673-2.034
			c-0.176,0.672-0.334,1.236-0.474,1.692s-0.27,0.842-0.39,1.158s-0.23,0.578-0.33,0.786c-0.101,0.208-0.202,0.4-0.307,0.576
			c-0.096,0.168-0.208,0.274-0.336,0.318s-0.3,0.066-0.516,0.066s-0.388-0.016-0.516-0.048c-0.129-0.032-0.234-0.09-0.318-0.174
			s-0.16-0.194-0.229-0.33c-0.067-0.136-0.146-0.308-0.233-0.516c-0.185-0.416-0.36-0.874-0.528-1.374
			c-0.168-0.5-0.324-1.026-0.468-1.578c-0.145-0.552-0.276-1.122-0.396-1.71c-0.119-0.588-0.216-1.186-0.287-1.794
			c-0.017-0.136-0.041-0.248-0.072-0.336c-0.032-0.088-0.116-0.184-0.252-0.288c-0.072-0.056-0.132-0.114-0.181-0.174
			c-0.048-0.06-0.071-0.138-0.071-0.234c0-0.2,0.076-0.318,0.228-0.354c0.152-0.036,0.356-0.054,0.612-0.054H75.413z"/>
		<path fill="#C2B59B" d="M85.972,124.702c0-0.264-0.004-0.474-0.012-0.63c-0.008-0.156-0.026-0.278-0.054-0.366
			c-0.028-0.088-0.068-0.154-0.12-0.198s-0.118-0.09-0.198-0.138c-0.071-0.04-0.14-0.082-0.204-0.126
			c-0.063-0.044-0.096-0.114-0.096-0.21c0-0.112,0.044-0.196,0.132-0.252s0.236-0.116,0.444-0.18
			c0.128-0.032,0.264-0.07,0.408-0.114c0.144-0.044,0.288-0.086,0.432-0.126s0.278-0.072,0.402-0.096s0.233-0.036,0.33-0.036
			c0.119,0,0.214,0.038,0.281,0.114c0.068,0.076,0.116,0.172,0.145,0.288c0.027,0.116,0.046,0.244,0.054,0.384
			c0.008,0.14,0.012,0.27,0.012,0.39v3.072c0,0.144,0,0.264,0,0.36c0,0.096,0.007,0.176,0.019,0.24s0.03,0.116,0.054,0.156
			c0.024,0.04,0.061,0.076,0.108,0.108c0.096,0.04,0.17,0.086,0.222,0.138c0.052,0.052,0.078,0.13,0.078,0.234
			c0,0.184-0.061,0.294-0.18,0.33c-0.12,0.036-0.248,0.054-0.385,0.054h-1.788c-0.136,0-0.264-0.018-0.384-0.054
			c-0.12-0.036-0.18-0.146-0.18-0.33c0-0.104,0.025-0.182,0.078-0.234c0.052-0.052,0.126-0.098,0.222-0.138
			c0.048-0.032,0.084-0.068,0.108-0.108c0.023-0.04,0.042-0.092,0.054-0.156s0.018-0.144,0.018-0.24c0-0.096,0-0.216,0-0.36V124.702
			z M86.351,121.486c-0.133-0.04-0.255-0.098-0.366-0.174c-0.112-0.076-0.202-0.17-0.271-0.282c-0.067-0.112-0.102-0.24-0.102-0.384
			c0-0.16,0.034-0.302,0.102-0.426c0.068-0.124,0.156-0.23,0.265-0.318c0.107-0.088,0.231-0.154,0.372-0.198
			c0.14-0.044,0.281-0.066,0.426-0.066c0.144,0,0.288,0.02,0.432,0.06c0.145,0.04,0.271,0.1,0.378,0.18
			c0.108,0.08,0.196,0.18,0.265,0.3c0.067,0.12,0.102,0.26,0.102,0.42s-0.038,0.298-0.114,0.414
			c-0.076,0.116-0.172,0.214-0.288,0.294s-0.244,0.14-0.384,0.18s-0.278,0.06-0.414,0.06S86.482,121.526,86.351,121.486z"/>
		<path fill="#C2B59B" d="M95.669,126.478c0,0.144,0,0.264,0,0.36c0,0.096,0.006,0.176,0.018,0.24s0.03,0.116,0.054,0.156
			c0.024,0.04,0.061,0.076,0.108,0.108c0.096,0.04,0.17,0.086,0.222,0.138c0.052,0.052,0.078,0.13,0.078,0.234
			c0,0.184-0.06,0.294-0.18,0.33c-0.12,0.036-0.248,0.054-0.384,0.054h-1.788c-0.137,0-0.265-0.018-0.385-0.054
			c-0.119-0.036-0.18-0.146-0.18-0.33c0-0.104,0.026-0.182,0.078-0.234c0.052-0.052,0.126-0.098,0.222-0.138
			c0.048-0.032,0.084-0.068,0.108-0.108c0.023-0.04,0.042-0.092,0.054-0.156s0.019-0.144,0.019-0.24c0-0.096,0-0.216,0-0.36v-1.836
			c0-0.168-0.007-0.334-0.019-0.498c-0.012-0.164-0.046-0.314-0.102-0.45c-0.057-0.136-0.145-0.246-0.265-0.33
			c-0.119-0.084-0.288-0.126-0.504-0.126c-0.416,0-0.724,0.164-0.924,0.492c-0.088,0.144-0.14,0.304-0.156,0.48
			c-0.016,0.176-0.023,0.344-0.023,0.504v1.764c0,0.144,0,0.264,0,0.36c0,0.096,0.006,0.176,0.018,0.24
			c0.013,0.064,0.03,0.116,0.055,0.156c0.023,0.04,0.06,0.076,0.107,0.108c0.096,0.04,0.17,0.086,0.222,0.138
			c0.053,0.052,0.078,0.13,0.078,0.234c0,0.184-0.06,0.294-0.18,0.33c-0.12,0.036-0.248,0.054-0.384,0.054h-1.788
			c-0.137,0-0.264-0.018-0.384-0.054c-0.12-0.036-0.181-0.146-0.181-0.33c0-0.104,0.026-0.182,0.078-0.234
			c0.052-0.052,0.126-0.098,0.223-0.138c0.048-0.032,0.084-0.068,0.107-0.108c0.024-0.04,0.042-0.092,0.054-0.156
			c0.013-0.064,0.019-0.144,0.019-0.24c0-0.096,0-0.216,0-0.36v-2.196c0-0.104,0-0.196,0-0.276s-0.01-0.154-0.03-0.222
			c-0.02-0.068-0.054-0.13-0.102-0.186c-0.048-0.056-0.124-0.108-0.229-0.156c-0.063-0.024-0.122-0.06-0.174-0.108
			c-0.052-0.048-0.078-0.12-0.078-0.216c0-0.104,0.078-0.21,0.234-0.318s0.338-0.204,0.546-0.288s0.414-0.152,0.618-0.204
			c0.204-0.052,0.354-0.078,0.45-0.078c0.104,0,0.188,0.03,0.252,0.09c0.063,0.06,0.115,0.134,0.155,0.222
			c0.04,0.088,0.068,0.182,0.084,0.282c0.017,0.1,0.032,0.19,0.048,0.27c0.473-0.576,1.108-0.864,1.908-0.864
			c0.305,0,0.61,0.048,0.918,0.144c0.309,0.096,0.57,0.26,0.786,0.492s0.356,0.504,0.42,0.816c0.064,0.312,0.097,0.62,0.097,0.924
			V126.478z"/>
		<path fill="#C2B59B" d="M103.408,126.478c0,0.144,0,0.264,0,0.36c0,0.096,0.006,0.176,0.018,0.24s0.03,0.116,0.054,0.156
			c0.024,0.04,0.061,0.076,0.108,0.108c0.096,0.04,0.17,0.086,0.222,0.138c0.052,0.052,0.078,0.13,0.078,0.234
			c0,0.184-0.06,0.294-0.18,0.33c-0.12,0.036-0.248,0.054-0.384,0.054h-1.788c-0.137,0-0.265-0.018-0.385-0.054
			c-0.119-0.036-0.18-0.146-0.18-0.33c0-0.104,0.026-0.182,0.078-0.234c0.052-0.052,0.126-0.098,0.222-0.138
			c0.048-0.032,0.084-0.068,0.108-0.108c0.023-0.04,0.042-0.092,0.054-0.156s0.019-0.144,0.019-0.24c0-0.096,0-0.216,0-0.36v-1.836
			c0-0.168-0.007-0.334-0.019-0.498c-0.012-0.164-0.046-0.314-0.102-0.45c-0.057-0.136-0.145-0.246-0.265-0.33
			c-0.119-0.084-0.288-0.126-0.504-0.126c-0.416,0-0.724,0.164-0.924,0.492c-0.088,0.144-0.14,0.304-0.156,0.48
			c-0.016,0.176-0.023,0.344-0.023,0.504v1.764c0,0.144,0,0.264,0,0.36c0,0.096,0.006,0.176,0.018,0.24
			c0.013,0.064,0.03,0.116,0.055,0.156c0.023,0.04,0.06,0.076,0.107,0.108c0.096,0.04,0.17,0.086,0.222,0.138
			c0.053,0.052,0.078,0.13,0.078,0.234c0,0.184-0.06,0.294-0.18,0.33c-0.12,0.036-0.248,0.054-0.384,0.054h-1.788
			c-0.137,0-0.264-0.018-0.384-0.054c-0.12-0.036-0.181-0.146-0.181-0.33c0-0.104,0.026-0.182,0.078-0.234
			c0.052-0.052,0.126-0.098,0.223-0.138c0.048-0.032,0.084-0.068,0.107-0.108c0.024-0.04,0.042-0.092,0.054-0.156
			c0.013-0.064,0.019-0.144,0.019-0.24c0-0.096,0-0.216,0-0.36v-2.196c0-0.104,0-0.196,0-0.276s-0.01-0.154-0.03-0.222
			c-0.02-0.068-0.054-0.13-0.102-0.186c-0.048-0.056-0.124-0.108-0.229-0.156c-0.063-0.024-0.122-0.06-0.174-0.108
			c-0.052-0.048-0.078-0.12-0.078-0.216c0-0.104,0.078-0.21,0.234-0.318s0.338-0.204,0.546-0.288s0.414-0.152,0.618-0.204
			c0.204-0.052,0.354-0.078,0.45-0.078c0.104,0,0.188,0.03,0.252,0.09c0.063,0.06,0.115,0.134,0.155,0.222
			c0.04,0.088,0.068,0.182,0.084,0.282c0.017,0.1,0.032,0.19,0.048,0.27c0.473-0.576,1.108-0.864,1.908-0.864
			c0.305,0,0.61,0.048,0.918,0.144c0.309,0.096,0.57,0.26,0.786,0.492s0.356,0.504,0.42,0.816c0.064,0.312,0.097,0.62,0.097,0.924
			V126.478z"/>
		<path fill="#C2B59B" d="M105.351,124.702c0-0.264-0.004-0.474-0.012-0.63c-0.008-0.156-0.026-0.278-0.054-0.366
			c-0.028-0.088-0.068-0.154-0.12-0.198s-0.118-0.09-0.198-0.138c-0.071-0.04-0.14-0.082-0.204-0.126
			c-0.063-0.044-0.096-0.114-0.096-0.21c0-0.112,0.044-0.196,0.132-0.252s0.236-0.116,0.444-0.18
			c0.128-0.032,0.264-0.07,0.408-0.114c0.144-0.044,0.288-0.086,0.432-0.126s0.278-0.072,0.402-0.096s0.233-0.036,0.33-0.036
			c0.119,0,0.214,0.038,0.281,0.114c0.068,0.076,0.116,0.172,0.145,0.288c0.027,0.116,0.046,0.244,0.054,0.384
			c0.008,0.14,0.012,0.27,0.012,0.39v3.072c0,0.144,0,0.264,0,0.36c0,0.096,0.007,0.176,0.019,0.24s0.03,0.116,0.054,0.156
			c0.024,0.04,0.061,0.076,0.108,0.108c0.096,0.04,0.17,0.086,0.222,0.138c0.052,0.052,0.078,0.13,0.078,0.234
			c0,0.184-0.061,0.294-0.18,0.33c-0.12,0.036-0.248,0.054-0.385,0.054h-1.788c-0.136,0-0.264-0.018-0.384-0.054
			c-0.12-0.036-0.18-0.146-0.18-0.33c0-0.104,0.025-0.182,0.078-0.234c0.052-0.052,0.126-0.098,0.222-0.138
			c0.048-0.032,0.084-0.068,0.108-0.108c0.023-0.04,0.042-0.092,0.054-0.156s0.018-0.144,0.018-0.24c0-0.096,0-0.216,0-0.36V124.702
			z M105.729,121.486c-0.133-0.04-0.255-0.098-0.366-0.174c-0.112-0.076-0.202-0.17-0.271-0.282
			c-0.067-0.112-0.102-0.24-0.102-0.384c0-0.16,0.034-0.302,0.102-0.426c0.068-0.124,0.156-0.23,0.265-0.318
			c0.107-0.088,0.231-0.154,0.372-0.198c0.14-0.044,0.281-0.066,0.426-0.066c0.144,0,0.288,0.02,0.432,0.06
			c0.145,0.04,0.271,0.1,0.378,0.18c0.108,0.08,0.196,0.18,0.265,0.3c0.067,0.12,0.102,0.26,0.102,0.42s-0.038,0.298-0.114,0.414
			c-0.076,0.116-0.172,0.214-0.288,0.294s-0.244,0.14-0.384,0.18s-0.278,0.06-0.414,0.06S105.861,121.526,105.729,121.486z"/>
		<path fill="#C2B59B" d="M115.047,126.478c0,0.144,0,0.264,0,0.36c0,0.096,0.006,0.176,0.018,0.24s0.03,0.116,0.054,0.156
			c0.024,0.04,0.061,0.076,0.108,0.108c0.096,0.04,0.17,0.086,0.222,0.138c0.052,0.052,0.078,0.13,0.078,0.234
			c0,0.184-0.06,0.294-0.18,0.33c-0.12,0.036-0.248,0.054-0.384,0.054h-1.788c-0.137,0-0.265-0.018-0.385-0.054
			c-0.119-0.036-0.18-0.146-0.18-0.33c0-0.104,0.026-0.182,0.078-0.234c0.052-0.052,0.126-0.098,0.222-0.138
			c0.048-0.032,0.084-0.068,0.108-0.108c0.023-0.04,0.042-0.092,0.054-0.156s0.019-0.144,0.019-0.24c0-0.096,0-0.216,0-0.36v-1.836
			c0-0.168-0.007-0.334-0.019-0.498c-0.012-0.164-0.046-0.314-0.102-0.45c-0.057-0.136-0.145-0.246-0.265-0.33
			c-0.119-0.084-0.288-0.126-0.504-0.126c-0.416,0-0.724,0.164-0.924,0.492c-0.088,0.144-0.14,0.304-0.156,0.48
			c-0.016,0.176-0.023,0.344-0.023,0.504v1.764c0,0.144,0,0.264,0,0.36c0,0.096,0.006,0.176,0.018,0.24
			c0.013,0.064,0.03,0.116,0.055,0.156c0.023,0.04,0.06,0.076,0.107,0.108c0.096,0.04,0.17,0.086,0.222,0.138
			c0.053,0.052,0.078,0.13,0.078,0.234c0,0.184-0.06,0.294-0.18,0.33c-0.12,0.036-0.248,0.054-0.384,0.054h-1.788
			c-0.137,0-0.264-0.018-0.384-0.054c-0.12-0.036-0.181-0.146-0.181-0.33c0-0.104,0.026-0.182,0.078-0.234
			c0.052-0.052,0.126-0.098,0.223-0.138c0.048-0.032,0.084-0.068,0.107-0.108c0.024-0.04,0.042-0.092,0.054-0.156
			c0.013-0.064,0.019-0.144,0.019-0.24c0-0.096,0-0.216,0-0.36v-2.196c0-0.104,0-0.196,0-0.276s-0.01-0.154-0.03-0.222
			c-0.02-0.068-0.054-0.13-0.102-0.186c-0.048-0.056-0.124-0.108-0.229-0.156c-0.063-0.024-0.122-0.06-0.174-0.108
			c-0.052-0.048-0.078-0.12-0.078-0.216c0-0.104,0.078-0.21,0.234-0.318s0.338-0.204,0.546-0.288s0.414-0.152,0.618-0.204
			c0.204-0.052,0.354-0.078,0.45-0.078c0.104,0,0.188,0.03,0.252,0.09c0.063,0.06,0.115,0.134,0.155,0.222
			c0.04,0.088,0.068,0.182,0.084,0.282c0.017,0.1,0.032,0.19,0.048,0.27c0.473-0.576,1.108-0.864,1.908-0.864
			c0.305,0,0.61,0.048,0.918,0.144c0.309,0.096,0.57,0.26,0.786,0.492s0.356,0.504,0.42,0.816c0.064,0.312,0.097,0.62,0.097,0.924
			V126.478z"/>
		<path fill="#C2B59B" d="M122.222,122.326c0.096,0,0.192,0.004,0.288,0.012c0.096,0.008,0.182,0.028,0.258,0.06
			c0.076,0.032,0.138,0.083,0.187,0.15c0.048,0.068,0.071,0.162,0.071,0.282c0,0.104-0.023,0.184-0.071,0.24
			c-0.049,0.056-0.11,0.098-0.187,0.126c-0.076,0.028-0.156,0.046-0.24,0.054c-0.084,0.008-0.162,0.012-0.233,0.012h-0.312
			c0.216,0.232,0.38,0.498,0.492,0.798c0.112,0.3,0.168,0.606,0.168,0.918c0,0.952-0.404,1.692-1.212,2.22
			c0.176,0.04,0.35,0.098,0.522,0.174c0.172,0.076,0.323,0.172,0.455,0.288c0.133,0.116,0.238,0.252,0.318,0.408
			c0.08,0.156,0.12,0.338,0.12,0.546c0,0.384-0.12,0.696-0.36,0.936c-0.239,0.24-0.533,0.426-0.882,0.558
			c-0.348,0.132-0.716,0.22-1.104,0.264c-0.389,0.044-0.727,0.066-1.015,0.066c-0.128,0-0.292-0.004-0.491-0.012
			c-0.2-0.008-0.414-0.024-0.643-0.048c-0.228-0.024-0.458-0.062-0.689-0.114c-0.232-0.052-0.442-0.122-0.631-0.21
			c-0.188-0.088-0.34-0.194-0.455-0.318c-0.116-0.125-0.175-0.278-0.175-0.462c0-0.168,0.042-0.314,0.126-0.438
			s0.192-0.224,0.324-0.3s0.274-0.132,0.426-0.168c0.152-0.036,0.301-0.054,0.444-0.054c0.048,0,0.11,0.004,0.186,0.012
			c0.076,0.008,0.148,0.022,0.217,0.042c0.067,0.02,0.128,0.05,0.18,0.09s0.078,0.096,0.078,0.168c0,0.096-0.019,0.152-0.054,0.168
			c-0.036,0.016-0.055,0.068-0.055,0.156c0,0.104,0.048,0.188,0.145,0.252c0.096,0.064,0.208,0.114,0.336,0.15
			s0.256,0.06,0.384,0.072c0.128,0.012,0.228,0.018,0.3,0.018c0.145,0,0.307-0.01,0.486-0.03s0.348-0.064,0.504-0.132
			c0.156-0.068,0.288-0.16,0.396-0.276c0.108-0.116,0.162-0.27,0.162-0.462c0-0.24-0.082-0.426-0.246-0.558
			c-0.164-0.132-0.346-0.242-0.546-0.33c-0.288,0.08-0.596,0.12-0.924,0.12c-0.408,0-0.79-0.058-1.146-0.174
			c-0.356-0.116-0.668-0.288-0.937-0.516c-0.268-0.228-0.479-0.508-0.636-0.84s-0.234-0.714-0.234-1.146
			c0-0.424,0.08-0.83,0.24-1.218c0.16-0.388,0.408-0.714,0.744-0.978c0.336-0.256,0.708-0.432,1.116-0.528
			c0.408-0.096,0.815-0.144,1.224-0.144c0.224,0,0.4,0.004,0.528,0.012s0.271,0.02,0.432,0.036s0.311,0.028,0.45,0.036
			c0.14,0.008,0.31,0.012,0.51,0.012H122.222z M120.025,126.7c0.152-0.14,0.269-0.314,0.349-0.522
			c0.079-0.208,0.134-0.43,0.162-0.666c0.027-0.236,0.042-0.446,0.042-0.63c0-0.168-0.017-0.362-0.049-0.582
			c-0.031-0.22-0.088-0.426-0.168-0.618s-0.189-0.356-0.33-0.492c-0.14-0.136-0.317-0.204-0.533-0.204
			c-0.225,0-0.408,0.072-0.553,0.216c-0.144,0.144-0.258,0.318-0.342,0.522s-0.142,0.42-0.174,0.648s-0.048,0.426-0.048,0.594
			s0.012,0.364,0.036,0.588c0.023,0.224,0.071,0.436,0.144,0.636c0.072,0.2,0.176,0.37,0.312,0.51c0.136,0.14,0.319,0.21,0.552,0.21
			C119.674,126.91,119.874,126.84,120.025,126.7z"/>
		<path fill="#C2B59B" d="M128.835,120.838c0-0.232-0.013-0.398-0.036-0.498c-0.024-0.1-0.104-0.17-0.24-0.21
			c-0.144-0.04-0.24-0.09-0.288-0.15s-0.072-0.146-0.072-0.258c0-0.16,0.064-0.268,0.192-0.324c0.128-0.056,0.26-0.084,0.396-0.084
			h4.356c0.544,0,0.996,0.056,1.356,0.168c0.359,0.112,0.647,0.258,0.863,0.438c0.216,0.18,0.368,0.386,0.456,0.618
			c0.088,0.232,0.132,0.472,0.132,0.72c0,0.24-0.05,0.464-0.149,0.672c-0.101,0.208-0.23,0.396-0.391,0.564s-0.342,0.318-0.546,0.45
			c-0.204,0.132-0.406,0.238-0.605,0.318c0.304,0.056,0.594,0.148,0.87,0.276c0.275,0.128,0.518,0.292,0.726,0.492
			c0.208,0.2,0.374,0.432,0.498,0.696s0.186,0.564,0.186,0.9c0,0.344-0.067,0.666-0.203,0.966c-0.137,0.3-0.336,0.562-0.601,0.786
			c-0.264,0.224-0.59,0.4-0.978,0.528c-0.389,0.128-0.83,0.192-1.326,0.192h-4.645c-0.136,0-0.268-0.028-0.396-0.084
			c-0.128-0.056-0.192-0.164-0.192-0.324c0-0.112,0.028-0.192,0.084-0.24c0.057-0.048,0.128-0.092,0.217-0.132
			c0.159-0.064,0.256-0.152,0.287-0.264c0.032-0.112,0.049-0.272,0.049-0.48V120.838z M131.019,123.31
			c0.264-0.056,0.55-0.136,0.858-0.24c0.308-0.104,0.594-0.242,0.857-0.414c0.265-0.172,0.486-0.376,0.666-0.612
			c0.181-0.236,0.271-0.514,0.271-0.834c0-0.24-0.051-0.43-0.15-0.57c-0.1-0.14-0.23-0.248-0.39-0.324
			c-0.16-0.076-0.338-0.126-0.534-0.15s-0.386-0.036-0.57-0.036c-0.24,0-0.426,0.016-0.558,0.048
			c-0.132,0.032-0.232,0.084-0.3,0.156c-0.068,0.072-0.11,0.164-0.126,0.276c-0.017,0.112-0.024,0.244-0.024,0.396V123.31z
			 M131.019,126.346c0,0.192,0.012,0.346,0.036,0.462c0.023,0.116,0.072,0.204,0.144,0.264c0.072,0.06,0.175,0.1,0.307,0.12
			s0.306,0.03,0.521,0.03c0.272,0,0.538-0.03,0.798-0.09s0.492-0.158,0.696-0.294c0.204-0.136,0.368-0.312,0.492-0.528
			c0.124-0.216,0.186-0.48,0.186-0.792c0-0.2-0.038-0.39-0.113-0.57c-0.076-0.18-0.177-0.342-0.301-0.486
			c-0.124-0.144-0.27-0.268-0.438-0.372s-0.344-0.184-0.528-0.24c-0.28,0.088-0.569,0.172-0.87,0.252
			c-0.3,0.08-0.609,0.14-0.93,0.18V126.346z"/>
		<path fill="#C2B59B" d="M140.097,126.964c0.275,0.236,0.609,0.354,1.002,0.354c0.327,0,0.619-0.066,0.876-0.198
			c0.256-0.132,0.504-0.306,0.743-0.522c0.089-0.072,0.162-0.134,0.223-0.186c0.06-0.052,0.149-0.078,0.27-0.078
			c0.088,0,0.168,0.032,0.24,0.096s0.108,0.14,0.108,0.228c0,0.112-0.036,0.224-0.108,0.336c-0.072,0.112-0.158,0.218-0.258,0.318
			c-0.101,0.1-0.206,0.19-0.318,0.27c-0.112,0.08-0.208,0.144-0.288,0.192c-0.312,0.185-0.628,0.314-0.947,0.39
			c-0.32,0.076-0.669,0.114-1.044,0.114c-0.408,0-0.807-0.064-1.194-0.192c-0.389-0.127-0.732-0.313-1.032-0.558
			s-0.542-0.542-0.726-0.894c-0.185-0.352-0.276-0.748-0.276-1.188c0-0.504,0.1-0.954,0.3-1.35s0.468-0.732,0.805-1.008
			c0.336-0.276,0.72-0.488,1.151-0.636c0.433-0.148,0.884-0.222,1.356-0.222c0.264,0,0.542,0.032,0.834,0.096
			s0.558,0.166,0.798,0.306c0.24,0.14,0.438,0.322,0.594,0.546s0.234,0.492,0.234,0.804c0,0.224-0.061,0.442-0.181,0.654
			c-0.119,0.212-0.328,0.408-0.624,0.588s-0.693,0.34-1.193,0.48c-0.5,0.14-1.13,0.25-1.891,0.33
			C139.639,126.418,139.82,126.728,140.097,126.964z M140.108,125.128c0.244-0.052,0.474-0.132,0.689-0.24
			c0.217-0.108,0.398-0.246,0.547-0.414c0.147-0.168,0.222-0.376,0.222-0.624c0-0.232-0.061-0.42-0.18-0.564
			c-0.12-0.144-0.301-0.216-0.54-0.216c-0.257,0-0.475,0.074-0.654,0.222c-0.18,0.148-0.328,0.33-0.444,0.546
			c-0.116,0.216-0.2,0.45-0.252,0.702s-0.07,0.482-0.054,0.69C139.643,125.214,139.864,125.18,140.108,125.128z"/>
		<path fill="#C2B59B" d="M147.116,126.964c0.275,0.236,0.609,0.354,1.002,0.354c0.327,0,0.619-0.066,0.876-0.198
			c0.256-0.132,0.504-0.306,0.743-0.522c0.089-0.072,0.162-0.134,0.223-0.186c0.06-0.052,0.149-0.078,0.27-0.078
			c0.088,0,0.168,0.032,0.24,0.096s0.108,0.14,0.108,0.228c0,0.112-0.036,0.224-0.108,0.336c-0.072,0.112-0.158,0.218-0.258,0.318
			c-0.101,0.1-0.206,0.19-0.318,0.27c-0.112,0.08-0.208,0.144-0.288,0.192c-0.312,0.185-0.628,0.314-0.947,0.39
			c-0.32,0.076-0.669,0.114-1.044,0.114c-0.408,0-0.807-0.064-1.194-0.192c-0.389-0.127-0.732-0.313-1.032-0.558
			s-0.542-0.542-0.726-0.894c-0.185-0.352-0.276-0.748-0.276-1.188c0-0.504,0.1-0.954,0.3-1.35s0.468-0.732,0.805-1.008
			c0.336-0.276,0.72-0.488,1.151-0.636c0.433-0.148,0.884-0.222,1.356-0.222c0.264,0,0.542,0.032,0.834,0.096
			s0.558,0.166,0.798,0.306c0.24,0.14,0.438,0.322,0.594,0.546s0.234,0.492,0.234,0.804c0,0.224-0.061,0.442-0.181,0.654
			c-0.119,0.212-0.328,0.408-0.624,0.588s-0.693,0.34-1.193,0.48c-0.5,0.14-1.13,0.25-1.891,0.33
			C146.658,126.418,146.84,126.728,147.116,126.964z M147.128,125.128c0.244-0.052,0.474-0.132,0.689-0.24
			c0.217-0.108,0.398-0.246,0.547-0.414c0.147-0.168,0.222-0.376,0.222-0.624c0-0.232-0.061-0.42-0.18-0.564
			c-0.12-0.144-0.301-0.216-0.54-0.216c-0.257,0-0.475,0.074-0.654,0.222c-0.18,0.148-0.328,0.33-0.444,0.546
			c-0.116,0.216-0.2,0.45-0.252,0.702s-0.07,0.482-0.054,0.69C146.662,125.214,146.884,125.18,147.128,125.128z"/>
		<path fill="#C2B59B" d="M152.233,124.282c0-0.144-0.036-0.286-0.108-0.426c-0.071-0.14-0.204-0.254-0.396-0.342
			c-0.088-0.04-0.164-0.088-0.229-0.144c-0.063-0.056-0.096-0.14-0.096-0.252c0-0.072,0.02-0.138,0.06-0.198
			c0.04-0.06,0.091-0.11,0.15-0.15c0.061-0.04,0.124-0.076,0.192-0.108c0.067-0.032,0.13-0.06,0.186-0.084
			c0.064-0.024,0.152-0.056,0.264-0.096c0.112-0.04,0.232-0.078,0.36-0.114s0.25-0.068,0.366-0.096
			c0.116-0.028,0.206-0.042,0.27-0.042c0.185,0,0.334,0.098,0.45,0.294c0.116,0.196,0.194,0.514,0.234,0.954
			c0.072-0.144,0.162-0.29,0.27-0.438c0.108-0.148,0.23-0.282,0.366-0.402s0.282-0.218,0.438-0.294
			c0.155-0.076,0.321-0.114,0.498-0.114c0.256,0,0.47,0.084,0.642,0.252s0.258,0.38,0.258,0.636c0,0.096-0.014,0.192-0.042,0.288
			c-0.028,0.096-0.068,0.184-0.12,0.264c-0.052,0.08-0.118,0.146-0.197,0.198c-0.08,0.052-0.173,0.078-0.276,0.078
			c-0.16,0-0.302-0.026-0.426-0.078c-0.124-0.052-0.25-0.078-0.378-0.078c-0.064,0-0.141,0.022-0.229,0.066
			c-0.088,0.044-0.174,0.13-0.258,0.258s-0.154,0.306-0.21,0.534c-0.057,0.228-0.084,0.522-0.084,0.882v0.948
			c0,0.16,0.002,0.288,0.006,0.384c0.004,0.096,0.016,0.174,0.036,0.234c0.02,0.06,0.052,0.108,0.096,0.144s0.106,0.074,0.187,0.114
			c0.079,0.04,0.147,0.086,0.204,0.138c0.056,0.052,0.084,0.126,0.084,0.222c0,0.096-0.021,0.17-0.061,0.222
			c-0.04,0.052-0.092,0.09-0.156,0.114c-0.063,0.024-0.134,0.038-0.21,0.042s-0.149,0.006-0.222,0.006h-1.884
			c-0.072,0-0.146-0.002-0.223-0.006c-0.075-0.004-0.146-0.018-0.21-0.042c-0.063-0.024-0.115-0.062-0.155-0.114
			c-0.04-0.052-0.061-0.126-0.061-0.222c0-0.096,0.028-0.17,0.084-0.222c0.056-0.052,0.124-0.098,0.204-0.138
			c0.072-0.032,0.128-0.064,0.168-0.096c0.04-0.032,0.072-0.078,0.096-0.138c0.024-0.06,0.04-0.14,0.049-0.24
			c0.008-0.1,0.012-0.234,0.012-0.402V124.282z"/>
	</g>
	<g>
		<g>
			<g>
				<path fill="#C2B59B" d="M153.694,23.442c0.03-0.016,3.463-2.241,4.036-5.256c0.573-3.015-1.745-8.059-1.769-8.085l0-0.001
					c0,0-0.001,0-0.001,0c0,0-0.001-0.001-0.001-0.001l0,0.001c-0.027,0.006-3.043,2.763-3.496,5.732
					c-0.453,2.968,1.213,7.571,1.229,7.609c0,0.001,0,0.001-0.001,0.002c0.001,0,0.001,0,0.001,0c0.001,0,0.001,0.001,0.001,0.001
					C153.693,23.443,153.693,23.443,153.694,23.442z"/>
				<path fill="#C2B59B" d="M150.466,17.419c0.005-0.038,0.148-4.77-1.76-7.552c-1.909-2.782-6.477-4.478-6.506-4.477
					c0,0-0.001-0.001-0.001-0.001l0,0.001l-0.001,0c0,0,0.001,0.001,0.001,0.001c-0.007,0.028,0.586,4.686,2.381,7.303
					c1.795,2.616,5.85,4.711,5.885,4.726c0.001,0.001,0.001,0.001,0.001,0.001l0.001-0.001c0.001,0,0.001,0,0.002,0.001
					C150.466,17.42,150.466,17.42,150.466,17.419z"/>
				<path fill="#C2B59B" d="M153.242,23.648c-0.031,0.013-3.925,1.09-6.529,0.047c-2.604-1.043-5.303-4.581-5.312-4.608l-0.001,0
					c0,0,0-0.001,0.001-0.001c0,0,0-0.001,0-0.001l0.001,0c0.018-0.02,3.792-1.664,6.504-0.663s5.319,5.188,5.337,5.224
					c0.001,0,0.001,0.001,0.002,0.001l-0.001,0.001c0,0.001,0,0.001,0.001,0.002C153.244,23.649,153.243,23.648,153.242,23.648z"/>
				<path fill="#C2B59B" d="M156.762,31.185c0.031-0.012,3.674-1.873,4.562-4.791c0.887-2.918-0.869-8.114-0.89-8.142l0-0.001
					c0,0-0.001,0-0.001,0c0-0.001-0.001-0.001-0.001-0.001l0,0.001c-0.027,0.003-3.318,2.426-4.085,5.307
					c-0.767,2.881,0.402,7.587,0.414,7.626c0,0.001-0.001,0.001-0.001,0.002c0.001,0,0.001,0,0.001-0.001c0,0.001,0,0.001,0,0.002
					C156.761,31.187,156.762,31.186,156.762,31.185z"/>
				<path fill="#C2B59B" d="M156.292,31.344c-0.033,0.009-4.014,0.689-6.489-0.595c-2.475-1.284-4.773-5.032-4.779-5.061l-0.001,0
					c0,0,0,0,0,0c0-0.001,0-0.001,0-0.001l0.001,0c0.02-0.018,3.939-1.271,6.522-0.021c2.583,1.251,4.732,5.638,4.746,5.676
					c0.001,0.001,0.001,0.001,0.002,0.001c-0.001,0-0.001,0-0.002,0c0,0.001,0,0.001,0.001,0.002
					C156.293,31.345,156.293,31.345,156.292,31.344z"/>
				<path fill="#C2B59B" d="M156.762,31.185c0.031-0.012,3.674-1.873,4.562-4.791c0.887-2.918-0.869-8.114-0.89-8.142l0-0.001
					c0,0-0.001,0-0.001,0c0-0.001-0.001-0.001-0.001-0.001l0,0.001c-0.027,0.003-3.318,2.426-4.085,5.307
					c-0.767,2.881,0.402,7.587,0.414,7.626c0,0.001-0.001,0.001-0.001,0.002c0.001,0,0.001,0,0.001-0.001c0,0.001,0,0.001,0,0.002
					C156.761,31.187,156.762,31.186,156.762,31.185z"/>
				<path fill="#C2B59B" d="M156.292,31.344c-0.033,0.009-4.014,0.689-6.489-0.595c-2.475-1.284-4.773-5.032-4.779-5.061l-0.001,0
					c0,0,0,0,0,0c0-0.001,0-0.001,0-0.001l0.001,0c0.02-0.018,3.939-1.271,6.522-0.021c2.583,1.251,4.732,5.638,4.746,5.676
					c0.001,0.001,0.001,0.001,0.002,0.001c-0.001,0-0.001,0-0.002,0c0,0.001,0,0.001,0.001,0.002
					C156.293,31.345,156.293,31.345,156.292,31.344z"/>
				<path fill="#C2B59B" d="M159.01,39.141c0.033-0.009,3.845-1.49,5.028-4.287c1.183-2.797-0.018-8.1-0.036-8.129l0-0.001
					c0,0-0.001,0-0.001,0C164,26.723,164,26.723,164,26.722l0,0.001c-0.027,0-3.551,2.067-4.615,4.837
					c-1.063,2.77-0.385,7.539-0.377,7.579c0,0.001-0.001,0.001-0.001,0.002c0,0,0.001,0,0.002,0c0,0.001,0,0.001,0,0.002
					C159.009,39.142,159.009,39.142,159.01,39.141z"/>
				<path fill="#C2B59B" d="M158.526,39.252c-0.033,0.006-4.062,0.283-6.391-1.231c-2.328-1.514-4.218-5.441-4.221-5.469
					l-0.001-0.001c0,0,0.001,0,0.001-0.001c0,0,0-0.001,0-0.001l0.001,0.001c0.022-0.016,4.045-0.869,6.481,0.621
					s4.12,6.04,4.131,6.079c0.001,0.001,0.001,0.001,0.002,0.001c-0.001,0-0.001,0-0.002,0c0,0.001,0,0.001,0,0.001
					C158.527,39.253,158.527,39.252,158.526,39.252z"/>
				<path fill="#C2B59B" d="M159.01,39.141c0.033-0.009,3.845-1.49,5.028-4.287c1.183-2.797-0.018-8.1-0.036-8.129l0-0.001
					c0,0-0.001,0-0.001,0C164,26.723,164,26.723,164,26.722l0,0.001c-0.027,0-3.551,2.067-4.615,4.837
					c-1.063,2.77-0.385,7.539-0.377,7.579c0,0.001-0.001,0.001-0.001,0.002c0,0,0.001,0,0.002,0c0,0.001,0,0.001,0,0.002
					C159.009,39.142,159.009,39.142,159.01,39.141z"/>
				<path fill="#C2B59B" d="M158.526,39.252c-0.033,0.006-4.062,0.283-6.391-1.231c-2.328-1.514-4.218-5.441-4.221-5.469
					l-0.001-0.001c0,0,0.001,0,0.001-0.001c0,0,0-0.001,0-0.001l0.001,0.001c0.022-0.016,4.045-0.869,6.481,0.621
					s4.12,6.04,4.131,6.079c0.001,0.001,0.001,0.001,0.002,0.001c-0.001,0-0.001,0-0.002,0c0,0.001,0,0.001,0,0.001
					C158.527,39.253,158.527,39.252,158.526,39.252z"/>
				<path fill="#C2B59B" d="M160.437,47.243c0.033-0.006,3.975-1.094,5.435-3.747c1.461-2.653,0.809-8.019,0.794-8.05l0.001-0.001
					c0,0-0.001,0-0.001,0c0-0.001,0-0.001-0.001-0.001l-0.001,0.001c-0.027-0.003-3.744,1.692-5.085,4.328
					c-1.34,2.636-1.148,7.429-1.144,7.469c0,0.001-0.001,0.001-0.001,0.002l0.002,0l0,0.002
					C160.436,47.245,160.436,47.244,160.437,47.243z"/>
				<path fill="#C2B59B" d="M159.944,47.305c-0.034,0.003-4.07-0.125-6.233-1.856s-3.64-5.804-3.64-5.833l-0.001-0.001
					c0,0,0.001,0,0.001-0.001c0-0.001,0-0.001,0-0.001l0.001,0.001c0.023-0.013,4.111-0.459,6.381,1.257s3.485,6.393,3.492,6.432
					c0.001,0.001,0.001,0.001,0.002,0.002l-0.002,0c0,0.001,0,0.001,0,0.002C159.945,47.306,159.945,47.306,159.944,47.305z"/>
				<path fill="#C2B59B" d="M160.437,47.243c0.033-0.006,3.975-1.094,5.435-3.747c1.461-2.653,0.809-8.019,0.794-8.05l0.001-0.001
					c0,0-0.001,0-0.001,0c0-0.001,0-0.001-0.001-0.001l-0.001,0.001c-0.027-0.003-3.744,1.692-5.085,4.328
					c-1.34,2.636-1.148,7.429-1.144,7.469c0,0.001-0.001,0.001-0.001,0.002l0.002,0l0,0.002
					C160.436,47.245,160.436,47.244,160.437,47.243z"/>
				<path fill="#C2B59B" d="M159.944,47.305c-0.034,0.003-4.07-0.125-6.233-1.856s-3.64-5.804-3.64-5.833l-0.001-0.001
					c0,0,0.001,0,0.001-0.001c0-0.001,0-0.001,0-0.001l0.001,0.001c0.023-0.013,4.111-0.459,6.381,1.257s3.485,6.393,3.492,6.432
					c0.001,0.001,0.001,0.001,0.002,0.002l-0.002,0c0,0.001,0,0.001,0,0.002C159.945,47.306,159.945,47.306,159.944,47.305z"/>
				<path fill="#C2B59B" d="M161.043,55.427c0.034-0.002,4.064-0.69,5.783-3.178c1.719-2.488,1.612-7.873,1.6-7.905l0.001-0.001
					c-0.001,0-0.001,0-0.001,0c0-0.001,0-0.001,0-0.001l-0.001,0.001c-0.027-0.005-3.896,1.303-5.495,3.783
					c-1.599,2.48-1.887,7.259-1.888,7.299c-0.001,0.001-0.001,0.001-0.002,0.002c0.001,0,0.001,0,0.002,0c0,0.001,0,0.001,0,0.002
					C161.042,55.428,161.042,55.428,161.043,55.427z"/>
				<path fill="#C2B59B" d="M160.547,55.439c-0.034-0.001-4.037-0.532-6.015-2.467s-3.037-6.12-3.034-6.148l-0.001-0.001
					c0,0,0.001,0,0.001,0c0-0.001,0-0.001,0-0.001l0.001,0c0.024-0.011,4.135-0.046,6.221,1.882
					c2.086,1.928,2.826,6.694,2.829,6.734c0.001,0.001,0.001,0.001,0.002,0.002l-0.002,0c0,0.001,0,0.001,0,0.002
					C160.548,55.44,160.548,55.44,160.547,55.439z"/>
				<path fill="#C2B59B" d="M161.043,55.427c0.034-0.002,4.064-0.69,5.783-3.178c1.719-2.488,1.612-7.873,1.6-7.905l0.001-0.001
					c-0.001,0-0.001,0-0.001,0c0-0.001,0-0.001,0-0.001l-0.001,0.001c-0.027-0.005-3.896,1.303-5.495,3.783
					c-1.599,2.48-1.887,7.259-1.888,7.299c-0.001,0.001-0.001,0.001-0.002,0.002c0.001,0,0.001,0,0.002,0c0,0.001,0,0.001,0,0.002
					C161.042,55.428,161.042,55.428,161.043,55.427z"/>
				<path fill="#C2B59B" d="M160.547,55.439c-0.034-0.001-4.037-0.532-6.015-2.467s-3.037-6.12-3.034-6.148l-0.001-0.001
					c0,0,0.001,0,0.001,0c0-0.001,0-0.001,0-0.001l0.001,0c0.024-0.011,4.135-0.046,6.221,1.882
					c2.086,1.928,2.826,6.694,2.829,6.734c0.001,0.001,0.001,0.001,0.002,0.002l-0.002,0c0,0.001,0,0.001,0,0.002
					C160.548,55.44,160.548,55.44,160.547,55.439z"/>
				<path fill="#C2B59B" d="M160.829,63.626c0.034,0.001,4.112-0.28,6.071-2.583s2.39-7.663,2.382-7.697l0.001-0.001l-0.001,0
					c0-0.001,0-0.001,0-0.002l-0.001,0.001c-0.026-0.008-4.007,0.904-5.846,3.208c-1.839,2.304-2.603,7.031-2.607,7.071
					c-0.001,0.001-0.001,0.001-0.002,0.002c0.001,0,0.001,0,0.002,0c0,0.001,0,0.001,0,0.002
					C160.828,63.627,160.828,63.627,160.829,63.626z"/>
				<path fill="#C2B59B" d="M160.334,63.588c-0.034-0.004-3.964-0.935-5.739-3.058s-2.41-6.387-2.404-6.415l-0.001-0.001
					c0,0,0.001,0,0.001,0c0.001-0.001,0.001-0.001,0.001-0.001l0.001,0c0.025-0.008,4.119,0.367,6.001,2.492
					c1.883,2.125,2.144,6.941,2.142,6.981c0.001,0.001,0.001,0.001,0.002,0.002l-0.002,0c0,0,0,0.001,0,0.002
					C160.335,63.59,160.335,63.589,160.334,63.588z"/>
				<path fill="#C2B59B" d="M160.829,63.626c0.034,0.001,4.112-0.28,6.071-2.583s2.39-7.663,2.382-7.697l0.001-0.001l-0.001,0
					c0-0.001,0-0.001,0-0.002l-0.001,0.001c-0.026-0.008-4.007,0.904-5.846,3.208c-1.839,2.304-2.603,7.031-2.607,7.071
					c-0.001,0.001-0.001,0.001-0.002,0.002c0.001,0,0.001,0,0.002,0c0,0.001,0,0.001,0,0.002
					C160.828,63.627,160.828,63.627,160.829,63.626z"/>
				<path fill="#C2B59B" d="M160.334,63.588c-0.034-0.004-3.964-0.935-5.739-3.058s-2.41-6.387-2.404-6.415l-0.001-0.001
					c0,0,0.001,0,0.001,0c0.001-0.001,0.001-0.001,0.001-0.001l0.001,0c0.025-0.008,4.119,0.367,6.001,2.492
					c1.883,2.125,2.144,6.941,2.142,6.981c0.001,0.001,0.001,0.001,0.002,0.002l-0.002,0c0,0,0,0.001,0,0.002
					C160.335,63.59,160.335,63.589,160.334,63.588z"/>
				<path fill="#C2B59B" d="M159.794,71.776c0.034,0.004,4.12,0.132,6.3-1.967c2.18-2.099,3.145-7.393,3.14-7.427l0.001-0.001
					c0,0-0.001,0-0.001,0c0-0.001,0-0.001,0-0.002l-0.001,0.001c-0.025-0.01-4.077,0.497-6.137,2.608
					c-2.06,2.11-3.295,6.746-3.303,6.786c0,0-0.001,0.001-0.002,0.002c0.001,0,0.001,0,0.002,0l0,0.002L159.794,71.776z"/>
				<path fill="#C2B59B" d="M159.306,71.688c-0.033-0.008-3.85-1.33-5.403-3.625c-1.553-2.295-1.759-6.603-1.751-6.63l-0.001-0.001
					c0,0,0.001,0,0.001,0l0-0.001l0.001,0.001c0.026-0.006,4.062,0.778,5.722,3.082c1.661,2.305,1.437,7.133,1.431,7.173
					c0.001,0.001,0.001,0.001,0.001,0.002c-0.001,0-0.001,0-0.002,0c0,0.001,0,0.001,0,0.002
					C159.307,71.69,159.307,71.689,159.306,71.688z"/>
				<path fill="#C2B59B" d="M159.794,71.776c0.034,0.004,4.12,0.132,6.3-1.967c2.18-2.099,3.145-7.393,3.14-7.427l0.001-0.001
					c0,0-0.001,0-0.001,0c0-0.001,0-0.001,0-0.002l-0.001,0.001c-0.025-0.01-4.077,0.497-6.137,2.608
					c-2.06,2.11-3.295,6.746-3.303,6.786c0,0-0.001,0.001-0.002,0.002c0.001,0,0.001,0,0.002,0l0,0.002L159.794,71.776z"/>
				<path fill="#C2B59B" d="M159.306,71.688c-0.033-0.008-3.85-1.33-5.403-3.625c-1.553-2.295-1.759-6.603-1.751-6.63l-0.001-0.001
					c0,0,0.001,0,0.001,0l0-0.001l0.001,0.001c0.026-0.006,4.062,0.778,5.722,3.082c1.661,2.305,1.437,7.133,1.431,7.173
					c0.001,0.001,0.001,0.001,0.001,0.002c-0.001,0-0.001,0-0.002,0c0,0.001,0,0.001,0,0.002
					C159.307,71.69,159.307,71.689,159.306,71.688z"/>
				<path fill="#C2B59B" d="M157.939,79.81c0.033,0.008,4.087,0.543,6.47-1.335s3.875-7.063,3.874-7.097l0.001-0.001l-0.001-0.001
					c0-0.001,0-0.001,0-0.002l-0.001,0.001c-0.024-0.013-4.106,0.087-6.369,1.986c-2.262,1.899-3.963,6.408-3.975,6.446
					c0,0-0.001,0.001-0.002,0.001c0.001,0,0.001,0,0.002,0c0,0,0,0.001-0.001,0.002C157.938,79.811,157.938,79.81,157.939,79.81z"/>
				<path fill="#C2B59B" d="M157.462,79.674c-0.032-0.011-3.695-1.715-5.008-4.162c-1.312-2.448-1.084-6.766-1.073-6.792
					l-0.001-0.001c0,0,0.001,0,0.001,0c0.001-0.001,0.001-0.001,0.001-0.001l0.001,0.001c0.026-0.003,3.964,1.182,5.384,3.648
					c1.42,2.466,0.707,7.267,0.697,7.306c0,0.001,0.001,0.001,0.001,0.002c-0.001,0-0.001,0-0.001,0
					c-0.001,0.001-0.001,0.001-0.001,0.002C157.463,79.675,157.463,79.675,157.462,79.674z"/>
				<path fill="#C2B59B" d="M157.939,79.81c0.033,0.008,4.087,0.543,6.47-1.335s3.875-7.063,3.874-7.097l0.001-0.001l-0.001-0.001
					c0-0.001,0-0.001,0-0.002l-0.001,0.001c-0.024-0.013-4.106,0.087-6.369,1.986c-2.262,1.899-3.963,6.408-3.975,6.446
					c0,0-0.001,0.001-0.002,0.001c0.001,0,0.001,0,0.002,0c0,0,0,0.001-0.001,0.002C157.938,79.811,157.938,79.81,157.939,79.81z"/>
				<path fill="#C2B59B" d="M157.462,79.674c-0.032-0.011-3.695-1.715-5.008-4.162c-1.312-2.448-1.084-6.766-1.073-6.792
					l-0.001-0.001c0,0,0.001,0,0.001,0c0.001-0.001,0.001-0.001,0.001-0.001l0.001,0.001c0.026-0.003,3.964,1.182,5.384,3.648
					c1.42,2.466,0.707,7.267,0.697,7.306c0,0.001,0.001,0.001,0.001,0.002c-0.001,0-0.001,0-0.001,0
					c-0.001,0.001-0.001,0.001-0.001,0.002C157.463,79.675,157.463,79.675,157.462,79.674z"/>
				<path fill="#C2B59B" d="M155.264,87.663c0.032,0.011,4.014,0.95,6.58-0.692s4.582-6.676,4.584-6.71l0.001-0.001
					c0,0-0.001,0-0.001,0c0-0.001,0-0.001,0-0.002l-0.001,0.001c-0.022-0.015-4.094-0.324-6.541,1.349
					c-2.446,1.673-4.607,6.017-4.623,6.054c-0.001,0-0.001,0.001-0.002,0.001l0.002,0.001c0,0.001,0,0.001-0.001,0.002
					C155.262,87.664,155.263,87.663,155.264,87.663z"/>
				<path fill="#C2B59B" d="M154.803,87.479c-0.031-0.014-3.5-2.085-4.553-4.666s-0.384-6.874-0.371-6.899l-0.001-0.001
					c0,0,0.001,0,0.001,0l0.001-0.001l0.001,0.001c0.027-0.001,3.825,1.577,4.985,4.184c1.161,2.607-0.048,7.342-0.061,7.381
					c0,0.001,0,0.001,0.001,0.002c0,0-0.001,0-0.001-0.001c0,0,0,0.001-0.001,0.002C154.803,87.48,154.803,87.48,154.803,87.479z"/>
				<path fill="#C2B59B" d="M155.264,87.663c0.032,0.011,4.014,0.95,6.58-0.692s4.582-6.676,4.584-6.71l0.001-0.001
					c0,0-0.001,0-0.001,0c0-0.001,0-0.001,0-0.002l-0.001,0.001c-0.022-0.015-4.094-0.324-6.541,1.349
					c-2.446,1.673-4.607,6.017-4.623,6.054c-0.001,0-0.001,0.001-0.002,0.001l0.002,0.001c0,0.001,0,0.001-0.001,0.002
					C155.262,87.664,155.263,87.663,155.264,87.663z"/>
				<path fill="#C2B59B" d="M154.803,87.479c-0.031-0.014-3.5-2.085-4.553-4.666s-0.384-6.874-0.371-6.899l-0.001-0.001
					c0,0,0.001,0,0.001,0l0.001-0.001l0.001,0.001c0.027-0.001,3.825,1.577,4.985,4.184c1.161,2.607-0.048,7.342-0.061,7.381
					c0,0.001,0,0.001,0.001,0.002c0,0-0.001,0-0.001-0.001c0,0,0,0.001-0.001,0.002C154.803,87.48,154.803,87.48,154.803,87.479z"/>
				<path fill="#C2B59B" d="M151.767,95.269c0.031,0.014,3.9,1.35,6.631-0.043c2.731-1.393,5.264-6.233,5.269-6.267l0.001-0.001
					c0,0,0,0-0.001-0.001l0-0.002l-0.001,0.001c-0.021-0.018-4.042-0.733-6.653,0.7c-2.611,1.433-5.227,5.575-5.247,5.611
					c-0.001,0-0.001,0.001-0.001,0.001s0,0.001,0.001,0.001c0,0.001-0.001,0.001-0.001,0.002
					C151.766,95.27,151.766,95.27,151.767,95.269z"/>
				<path fill="#C2B59B" d="M151.328,95.039c-0.029-0.017-3.264-2.439-4.039-5.13c-0.775-2.692,0.339-6.926,0.355-6.949l0-0.001
					c0.001,0,0.001,0,0.001,0c0.001,0,0.001-0.001,0.001-0.001l0.001,0.001c0.027,0.002,3.645,1.959,4.528,4.686
					s-0.826,7.356-0.844,7.393c0,0.001,0,0.001,0.001,0.003c0,0-0.001,0-0.001-0.001c0,0.001,0,0.001-0.001,0.002
					C151.328,95.041,151.328,95.04,151.328,95.039z"/>
				<path fill="#C2B59B" d="M151.767,95.269c0.031,0.014,3.9,1.35,6.631-0.043c2.731-1.393,5.264-6.233,5.269-6.267l0.001-0.001
					c0,0,0,0-0.001-0.001l0-0.002l-0.001,0.001c-0.021-0.018-4.042-0.733-6.653,0.7c-2.611,1.433-5.227,5.575-5.247,5.611
					c-0.001,0-0.001,0.001-0.001,0.001s0,0.001,0.001,0.001c0,0.001-0.001,0.001-0.001,0.002
					C151.766,95.27,151.766,95.27,151.767,95.269z"/>
				<path fill="#C2B59B" d="M151.328,95.039c-0.029-0.017-3.264-2.439-4.039-5.13c-0.775-2.692,0.339-6.926,0.355-6.949l0-0.001
					c0.001,0,0.001,0,0.001,0c0.001,0,0.001-0.001,0.001-0.001l0.001,0.001c0.027,0.002,3.645,1.959,4.528,4.686
					s-0.826,7.356-0.844,7.393c0,0.001,0,0.001,0.001,0.003c0,0-0.001,0-0.001-0.001c0,0.001,0,0.001-0.001,0.002
					C151.328,95.041,151.328,95.04,151.328,95.039z"/>
				<path fill="#C2B59B" d="M147.45,102.564c0.029,0.017,3.745,1.738,6.623,0.608c2.878-1.13,5.922-5.737,5.931-5.771l0.001-0.001
					c0,0,0-0.001,0-0.001c0-0.001,0-0.001,0-0.002l-0.001,0.001c-0.019-0.02-3.949-1.136-6.706,0.044
					c-2.758,1.18-5.823,5.085-5.848,5.119c-0.001,0-0.001,0-0.002,0.001l0.001,0.001c0,0.001-0.001,0.001-0.001,0.002
					C147.449,102.564,147.45,102.564,147.45,102.564z"/>
				<path fill="#C2B59B" d="M147.037,102.29c-0.027-0.02-2.987-2.772-3.466-5.552c-0.479-2.78,1.087-6.918,1.105-6.94l0-0.001
					c0,0,0.001,0,0.001,0c0.001,0,0.001-0.001,0.001-0.001l0.001,0.001c0.026,0.005,3.424,2.325,4.01,5.149
					c0.586,2.824-1.628,7.307-1.65,7.343c0,0.001,0,0.002,0,0.003c0,0-0.001-0.001-0.001-0.001c0,0-0.001,0.001-0.001,0.002
					C147.037,102.291,147.037,102.291,147.037,102.29z"/>
				<path fill="#C2B59B" d="M147.45,102.564c0.029,0.017,3.745,1.738,6.623,0.608c2.878-1.13,5.922-5.737,5.931-5.771l0.001-0.001
					c0,0,0-0.001,0-0.001c0-0.001,0-0.001,0-0.002l-0.001,0.001c-0.019-0.02-3.949-1.136-6.706,0.044
					c-2.758,1.18-5.823,5.085-5.848,5.119c-0.001,0-0.001,0-0.002,0.001l0.001,0.001c0,0.001-0.001,0.001-0.001,0.002
					C147.449,102.564,147.45,102.564,147.45,102.564z"/>
				<path fill="#C2B59B" d="M147.037,102.29c-0.027-0.02-2.987-2.772-3.466-5.552c-0.479-2.78,1.087-6.918,1.105-6.94l0-0.001
					c0,0,0.001,0,0.001,0c0.001,0,0.001-0.001,0.001-0.001l0.001,0.001c0.026,0.005,3.424,2.325,4.01,5.149
					c0.586,2.824-1.628,7.307-1.65,7.343c0,0.001,0,0.002,0,0.003c0,0-0.001-0.001-0.001-0.001c0,0-0.001,0.001-0.001,0.002
					C147.037,102.291,147.037,102.291,147.037,102.29z"/>
				<path fill="#C2B59B" d="M142.313,109.481c0.027,0.02,3.55,2.113,6.555,1.256c3.005-0.857,6.556-5.189,6.569-5.222l0.001-0.001
					c0,0,0-0.001-0.001-0.001c0-0.001,0-0.001,0-0.001l-0.001,0c-0.017-0.022-3.814-1.53-6.7-0.614s-6.396,4.548-6.424,4.58
					c-0.001,0-0.002,0-0.003,0.001c0,0,0.001,0.001,0.001,0.001c-0.001,0.001-0.001,0.001-0.001,0.001
					C142.311,109.481,142.312,109.481,142.313,109.481z"/>
				<path fill="#C2B59B" d="M141.931,109.165c-0.025-0.023-2.67-3.081-2.833-5.925c-0.163-2.844,1.858-6.85,1.879-6.87l0-0.001
					c0,0,0.001,0,0.001,0c0,0,0.001-0.001,0.001-0.001l0,0.001c0.026,0.007,3.162,2.672,3.433,5.569
					c0.271,2.897-2.453,7.193-2.479,7.227c0,0.001,0,0.002,0,0.003l-0.001-0.001c0,0.001-0.001,0.001-0.001,0.001
					C141.931,109.166,141.931,109.166,141.931,109.165z"/>
			</g>
		</g>
		<g>
			<g>
				<path fill="#C2B59B" d="M31.209,23.442c-0.03-0.016-3.463-2.241-4.036-5.256c-0.573-3.015,1.744-8.059,1.769-8.085l0-0.001
					c0,0,0.001,0,0.001,0c0,0,0.001-0.001,0.001-0.001l0,0.001c0.027,0.006,3.043,2.763,3.496,5.732
					c0.453,2.968-1.213,7.571-1.229,7.609c0,0.001,0,0.001,0.001,0.002l-0.001-0.001c0,0,0,0.001-0.001,0.002
					C31.209,23.443,31.209,23.443,31.209,23.442z"/>
				<path fill="#C2B59B" d="M34.437,17.419c-0.005-0.038-0.148-4.77,1.76-7.552s6.477-4.478,6.506-4.477l0.001-0.001l0,0.001
					c0.001,0,0.001,0,0.001,0c0,0-0.001,0.001-0.001,0.001c0.007,0.028-0.586,4.687-2.381,7.303
					c-1.795,2.616-5.85,4.711-5.885,4.726c-0.001,0.001-0.001,0.001-0.001,0.002l0-0.002c-0.001,0-0.001,0-0.002,0.001
					C34.436,17.42,34.436,17.42,34.437,17.419z"/>
				<path fill="#C2B59B" d="M31.66,23.648c0.031,0.013,3.925,1.09,6.528,0.047c2.604-1.043,5.303-4.581,5.312-4.608l0.001,0
					c0,0,0-0.001-0.001-0.001c0,0,0-0.001,0-0.001l-0.001,0c-0.018-0.02-3.792-1.664-6.504-0.663s-5.319,5.188-5.337,5.224
					c0,0-0.001,0.001-0.002,0.001c0.001,0,0.001,0,0.001,0.001c0,0.001-0.001,0.001-0.001,0.002
					C31.659,23.649,31.659,23.648,31.66,23.648z"/>
				<path fill="#C2B59B" d="M28.14,31.185c-0.032-0.012-3.674-1.873-4.562-4.791c-0.887-2.918,0.869-8.114,0.89-8.142l0-0.001
					l0.001,0c0-0.001,0.001-0.001,0.001-0.001l0.001,0.001c0.027,0.003,3.318,2.426,4.085,5.307
					c0.767,2.881-0.402,7.587-0.414,7.626c0,0.001,0.001,0.001,0.001,0.002l-0.001-0.001c0,0.001,0,0.001,0,0.002
					C28.141,31.187,28.141,31.186,28.14,31.185z"/>
				<path fill="#C2B59B" d="M28.61,31.344c0.033,0.009,4.014,0.689,6.489-0.595c2.475-1.284,4.773-5.032,4.779-5.061l0.001,0
					c0,0-0.001,0-0.001,0c0-0.001,0-0.001,0-0.001l-0.001,0c-0.02-0.018-3.939-1.271-6.522-0.021
					c-2.583,1.251-4.732,5.638-4.746,5.676c-0.001,0.001-0.001,0.001-0.002,0.001c0.001,0,0.001,0,0.002,0
					c0,0.001,0,0.001-0.001,0.002C28.609,31.345,28.61,31.345,28.61,31.344z"/>
				<path fill="#C2B59B" d="M28.14,31.185c-0.032-0.012-3.674-1.873-4.562-4.791c-0.887-2.918,0.869-8.114,0.89-8.142l0-0.001
					l0.001,0c0-0.001,0.001-0.001,0.001-0.001l0.001,0.001c0.027,0.003,3.318,2.426,4.085,5.307
					c0.767,2.881-0.402,7.587-0.414,7.626c0,0.001,0.001,0.001,0.001,0.002l-0.001-0.001c0,0.001,0,0.001,0,0.002
					C28.141,31.187,28.141,31.186,28.14,31.185z"/>
				<path fill="#C2B59B" d="M28.61,31.344c0.033,0.009,4.014,0.689,6.489-0.595c2.475-1.284,4.773-5.032,4.779-5.061l0.001,0
					c0,0-0.001,0-0.001,0c0-0.001,0-0.001,0-0.001l-0.001,0c-0.02-0.018-3.939-1.271-6.522-0.021
					c-2.583,1.251-4.732,5.638-4.746,5.676c-0.001,0.001-0.001,0.001-0.002,0.001c0.001,0,0.001,0,0.002,0
					c0,0.001,0,0.001-0.001,0.002C28.609,31.345,28.61,31.345,28.61,31.344z"/>
				<path fill="#C2B59B" d="M25.893,39.141c-0.033-0.009-3.845-1.49-5.028-4.287c-1.183-2.797,0.018-8.1,0.036-8.129l0-0.001
					c0.001,0,0.001,0,0.001,0c0,0,0-0.001,0.001-0.001l0,0.001c0.027,0,3.551,2.067,4.615,4.837c1.063,2.77,0.385,7.539,0.377,7.579
					c0,0,0.001,0.001,0.001,0.002c-0.001,0-0.001,0-0.002,0c0,0.001,0,0.001,0,0.002C25.894,39.142,25.893,39.142,25.893,39.141z"/>
				<path fill="#C2B59B" d="M26.377,39.252c0.033,0.006,4.062,0.283,6.391-1.231c2.328-1.514,4.218-5.441,4.221-5.469l0.001-0.001
					c0,0-0.001,0-0.001-0.001c0,0,0-0.001,0-0.001l-0.001,0.001c-0.022-0.016-4.045-0.869-6.481,0.621
					c-2.436,1.49-4.12,6.04-4.131,6.079c0,0-0.001,0.001-0.002,0.001c0.001,0,0.001,0,0.002,0c0,0.001,0,0.001-0.001,0.002
					C26.375,39.253,26.376,39.252,26.377,39.252z"/>
				<path fill="#C2B59B" d="M25.893,39.141c-0.033-0.009-3.845-1.49-5.028-4.287c-1.183-2.797,0.018-8.1,0.036-8.129l0-0.001
					c0.001,0,0.001,0,0.001,0c0,0,0-0.001,0.001-0.001l0,0.001c0.027,0,3.551,2.067,4.615,4.837c1.063,2.77,0.385,7.539,0.377,7.579
					c0,0,0.001,0.001,0.001,0.002c-0.001,0-0.001,0-0.002,0c0,0.001,0,0.001,0,0.002C25.894,39.142,25.893,39.142,25.893,39.141z"/>
				<path fill="#C2B59B" d="M26.377,39.252c0.033,0.006,4.062,0.283,6.391-1.231c2.328-1.514,4.218-5.441,4.221-5.469l0.001-0.001
					c0,0-0.001,0-0.001-0.001c0,0,0-0.001,0-0.001l-0.001,0.001c-0.022-0.016-4.045-0.869-6.481,0.621
					c-2.436,1.49-4.12,6.04-4.131,6.079c0,0-0.001,0.001-0.002,0.001c0.001,0,0.001,0,0.002,0c0,0.001,0,0.001-0.001,0.002
					C26.375,39.253,26.376,39.252,26.377,39.252z"/>
				<path fill="#C2B59B" d="M24.466,47.243c-0.033-0.006-3.975-1.094-5.435-3.747c-1.461-2.653-0.809-8.019-0.794-8.05l-0.001-0.001
					c0.001,0,0.001,0,0.001,0c0.001-0.001,0.001-0.001,0.001-0.001l0.001,0.001c0.027-0.003,3.744,1.692,5.085,4.328
					c1.341,2.636,1.148,7.429,1.144,7.469c0.001,0.001,0.001,0.001,0.001,0.002c-0.001,0-0.001,0-0.002,0l0,0.002
					C24.467,47.245,24.466,47.244,24.466,47.243z"/>
				<path fill="#C2B59B" d="M24.958,47.305c0.034,0.003,4.07-0.125,6.233-1.856c2.162-1.732,3.64-5.804,3.64-5.833l0.001-0.001
					c0,0-0.001,0-0.001,0c0-0.001,0-0.001,0-0.002l-0.001,0.001c-0.023-0.013-4.111-0.459-6.381,1.257s-3.485,6.393-3.492,6.432
					c-0.001,0.001-0.001,0.001-0.002,0.002c0.001,0,0.001,0,0.002,0c0,0.001,0,0.001,0,0.002
					C24.957,47.306,24.957,47.306,24.958,47.305z"/>
				<path fill="#C2B59B" d="M24.466,47.243c-0.033-0.006-3.975-1.094-5.435-3.747c-1.461-2.653-0.809-8.019-0.794-8.05l-0.001-0.001
					c0.001,0,0.001,0,0.001,0c0.001-0.001,0.001-0.001,0.001-0.001l0.001,0.001c0.027-0.003,3.744,1.692,5.085,4.328
					c1.341,2.636,1.148,7.429,1.144,7.469c0.001,0.001,0.001,0.001,0.001,0.002c-0.001,0-0.001,0-0.002,0l0,0.002
					C24.467,47.245,24.466,47.244,24.466,47.243z"/>
				<path fill="#C2B59B" d="M24.958,47.305c0.034,0.003,4.07-0.125,6.233-1.856c2.162-1.732,3.64-5.804,3.64-5.833l0.001-0.001
					c0,0-0.001,0-0.001,0c0-0.001,0-0.001,0-0.002l-0.001,0.001c-0.023-0.013-4.111-0.459-6.381,1.257s-3.485,6.393-3.492,6.432
					c-0.001,0.001-0.001,0.001-0.002,0.002c0.001,0,0.001,0,0.002,0c0,0.001,0,0.001,0,0.002
					C24.957,47.306,24.957,47.306,24.958,47.305z"/>
				<path fill="#C2B59B" d="M23.859,55.427c-0.034-0.002-4.064-0.69-5.783-3.178c-1.719-2.488-1.612-7.873-1.6-7.905l-0.001-0.001
					c0,0,0.001,0,0.001,0c0-0.001,0-0.001,0-0.001l0.001,0.001c0.027-0.005,3.896,1.303,5.495,3.783
					c1.599,2.48,1.887,7.259,1.888,7.299c0.001,0.001,0.001,0.001,0.002,0.002l-0.002,0c0,0.001,0,0.001,0,0.002
					C23.86,55.428,23.86,55.428,23.859,55.427z"/>
				<path fill="#C2B59B" d="M24.355,55.439c0.034-0.001,4.037-0.532,6.015-2.467s3.037-6.12,3.034-6.148l0.001-0.001
					c0,0-0.001,0-0.001,0c0-0.001-0.001-0.001-0.001-0.001l-0.001,0c-0.024-0.011-4.135-0.046-6.221,1.882
					c-2.086,1.928-2.826,6.694-2.829,6.734c-0.001,0.001-0.001,0.001-0.002,0.002c0.001,0,0.001,0,0.002,0c0,0.001,0,0.001,0,0.002
					C24.354,55.44,24.355,55.44,24.355,55.439z"/>
				<path fill="#C2B59B" d="M23.859,55.427c-0.034-0.002-4.064-0.69-5.783-3.178c-1.719-2.488-1.612-7.873-1.6-7.905l-0.001-0.001
					c0,0,0.001,0,0.001,0c0-0.001,0-0.001,0-0.001l0.001,0.001c0.027-0.005,3.896,1.303,5.495,3.783
					c1.599,2.48,1.887,7.259,1.888,7.299c0.001,0.001,0.001,0.001,0.002,0.002l-0.002,0c0,0.001,0,0.001,0,0.002
					C23.86,55.428,23.86,55.428,23.859,55.427z"/>
				<path fill="#C2B59B" d="M24.355,55.439c0.034-0.001,4.037-0.532,6.015-2.467s3.037-6.12,3.034-6.148l0.001-0.001
					c0,0-0.001,0-0.001,0c0-0.001-0.001-0.001-0.001-0.001l-0.001,0c-0.024-0.011-4.135-0.046-6.221,1.882
					c-2.086,1.928-2.826,6.694-2.829,6.734c-0.001,0.001-0.001,0.001-0.002,0.002c0.001,0,0.001,0,0.002,0c0,0.001,0,0.001,0,0.002
					C24.354,55.44,24.355,55.44,24.355,55.439z"/>
				<path fill="#C2B59B" d="M24.073,63.626c-0.034,0.001-4.112-0.28-6.071-2.583s-2.39-7.663-2.382-7.697l-0.001-0.001
					c0,0,0.001,0,0.001,0c0-0.001,0-0.001,0-0.002l0.001,0.001c0.026-0.008,4.007,0.904,5.846,3.208
					c1.839,2.304,2.603,7.031,2.607,7.071l0.002,0.002l-0.002,0c0,0.001,0,0.001,0,0.002C24.074,63.627,24.074,63.627,24.073,63.626
					z"/>
				<path fill="#C2B59B" d="M24.568,63.588c0.034-0.004,3.964-0.935,5.739-3.058c1.775-2.124,2.41-6.387,2.404-6.415l0.001-0.001
					l-0.001,0c0-0.001,0-0.001,0-0.001l-0.001,0c-0.025-0.008-4.119,0.367-6.001,2.492c-1.883,2.125-2.144,6.941-2.142,6.981
					c-0.001,0.001-0.001,0.001-0.001,0.002c0.001,0,0.001,0,0.002,0c0,0,0,0.001,0,0.002C24.567,63.59,24.567,63.589,24.568,63.588z
					"/>
				<path fill="#C2B59B" d="M24.073,63.626c-0.034,0.001-4.112-0.28-6.071-2.583s-2.39-7.663-2.382-7.697l-0.001-0.001
					c0,0,0.001,0,0.001,0c0-0.001,0-0.001,0-0.002l0.001,0.001c0.026-0.008,4.007,0.904,5.846,3.208
					c1.839,2.304,2.603,7.031,2.607,7.071l0.002,0.002l-0.002,0c0,0.001,0,0.001,0,0.002C24.074,63.627,24.074,63.627,24.073,63.626
					z"/>
				<path fill="#C2B59B" d="M24.568,63.588c0.034-0.004,3.964-0.935,5.739-3.058c1.775-2.124,2.41-6.387,2.404-6.415l0.001-0.001
					l-0.001,0c0-0.001,0-0.001,0-0.001l-0.001,0c-0.025-0.008-4.119,0.367-6.001,2.492c-1.883,2.125-2.144,6.941-2.142,6.981
					c-0.001,0.001-0.001,0.001-0.001,0.002c0.001,0,0.001,0,0.002,0c0,0,0,0.001,0,0.002C24.567,63.59,24.567,63.589,24.568,63.588z
					"/>
				<path fill="#C2B59B" d="M25.108,71.776c-0.034,0.004-4.12,0.132-6.3-1.967c-2.18-2.099-3.145-7.393-3.14-7.427l-0.001-0.001
					l0.001,0c0-0.001,0-0.001,0-0.002l0.001,0.001c0.025-0.01,4.077,0.497,6.137,2.608c2.06,2.11,3.295,6.746,3.303,6.786
					c0.001,0.001,0.001,0.001,0.002,0.002c-0.001,0-0.001,0-0.002,0c0,0.001,0,0.001,0,0.001
					C25.109,71.777,25.109,71.776,25.108,71.776z"/>
				<path fill="#C2B59B" d="M25.596,71.688c0.033-0.008,3.85-1.33,5.403-3.625c1.553-2.295,1.759-6.603,1.751-6.63l0.001-0.001
					c-0.001,0-0.001,0-0.001,0l0-0.001l-0.001,0.001c-0.026-0.006-4.062,0.778-5.722,3.082c-1.661,2.305-1.437,7.133-1.431,7.173
					c-0.001,0.001-0.001,0.001-0.001,0.002c0.001,0,0.001,0,0.002,0c0,0.001,0,0.001,0,0.002
					C25.596,71.69,25.596,71.689,25.596,71.688z"/>
				<path fill="#C2B59B" d="M25.108,71.776c-0.034,0.004-4.12,0.132-6.3-1.967c-2.18-2.099-3.145-7.393-3.14-7.427l-0.001-0.001
					l0.001,0c0-0.001,0-0.001,0-0.002l0.001,0.001c0.025-0.01,4.077,0.497,6.137,2.608c2.06,2.11,3.295,6.746,3.303,6.786
					c0.001,0.001,0.001,0.001,0.002,0.002c-0.001,0-0.001,0-0.002,0c0,0.001,0,0.001,0,0.001
					C25.109,71.777,25.109,71.776,25.108,71.776z"/>
				<path fill="#C2B59B" d="M25.596,71.688c0.033-0.008,3.85-1.33,5.403-3.625c1.553-2.295,1.759-6.603,1.751-6.63l0.001-0.001
					c-0.001,0-0.001,0-0.001,0l0-0.001l-0.001,0.001c-0.026-0.006-4.062,0.778-5.722,3.082c-1.661,2.305-1.437,7.133-1.431,7.173
					c-0.001,0.001-0.001,0.001-0.001,0.002c0.001,0,0.001,0,0.002,0c0,0.001,0,0.001,0,0.002
					C25.596,71.69,25.596,71.689,25.596,71.688z"/>
				<path fill="#C2B59B" d="M26.963,79.81c-0.033,0.008-4.087,0.543-6.47-1.335s-3.875-7.063-3.874-7.097l-0.001-0.001
					c0,0,0.001,0,0.001,0c0-0.001,0-0.001,0.001-0.002l0.001,0.001c0.024-0.013,4.106,0.087,6.369,1.986
					c2.262,1.899,3.963,6.408,3.975,6.446c0.001,0.001,0.001,0.001,0.002,0.001c-0.001,0-0.001,0-0.002,0l0.001,0.002
					C26.964,79.811,26.964,79.81,26.963,79.81z"/>
				<path fill="#C2B59B" d="M27.44,79.674c0.032-0.011,3.695-1.715,5.008-4.162c1.312-2.448,1.084-6.766,1.073-6.792l0.001-0.001
					c0,0-0.001,0-0.001,0l-0.001-0.001l-0.001,0.001c-0.026-0.003-3.963,1.182-5.384,3.648c-1.42,2.466-0.707,7.267-0.697,7.306
					c0,0.001-0.001,0.001-0.001,0.002c0.001,0,0.001,0,0.002-0.001c0,0.001,0,0.001,0,0.002C27.44,79.675,27.44,79.675,27.44,79.674
					z"/>
				<path fill="#C2B59B" d="M26.963,79.81c-0.033,0.008-4.087,0.543-6.47-1.335s-3.875-7.063-3.874-7.097l-0.001-0.001
					c0,0,0.001,0,0.001,0c0-0.001,0-0.001,0.001-0.002l0.001,0.001c0.024-0.013,4.106,0.087,6.369,1.986
					c2.262,1.899,3.963,6.408,3.975,6.446c0.001,0.001,0.001,0.001,0.002,0.001c-0.001,0-0.001,0-0.002,0l0.001,0.002
					C26.964,79.811,26.964,79.81,26.963,79.81z"/>
				<path fill="#C2B59B" d="M27.44,79.674c0.032-0.011,3.695-1.715,5.008-4.162c1.312-2.448,1.084-6.766,1.073-6.792l0.001-0.001
					c0,0-0.001,0-0.001,0l-0.001-0.001l-0.001,0.001c-0.026-0.003-3.963,1.182-5.384,3.648c-1.42,2.466-0.707,7.267-0.697,7.306
					c0,0.001-0.001,0.001-0.001,0.002c0.001,0,0.001,0,0.002-0.001c0,0.001,0,0.001,0,0.002C27.44,79.675,27.44,79.675,27.44,79.674
					z"/>
				<path fill="#C2B59B" d="M29.639,87.663c-0.032,0.011-4.014,0.95-6.58-0.692s-4.582-6.676-4.584-6.71l-0.001-0.001
					c0,0,0.001,0,0.001-0.001c0-0.001,0-0.001,0-0.002l0.001,0.001c0.022-0.015,4.095-0.324,6.541,1.349s4.607,6.017,4.623,6.054
					c0.001,0,0.001,0.001,0.002,0.001c-0.001,0-0.001,0-0.002,0.001c0,0.001,0,0.001,0.001,0.002
					C29.64,87.664,29.64,87.663,29.639,87.663z"/>
				<path fill="#C2B59B" d="M30.1,87.479c0.031-0.014,3.5-2.085,4.553-4.666s0.384-6.874,0.371-6.899l0.001-0.001h-0.001
					c0,0,0-0.001-0.001-0.001l-0.001,0.001c-0.027-0.001-3.824,1.577-4.985,4.184c-1.161,2.607,0.048,7.342,0.061,7.381
					c0,0.001,0,0.001-0.001,0.002l0.001-0.001c0,0.001,0,0.001,0.001,0.002C30.099,87.48,30.099,87.48,30.1,87.479z"/>
				<path fill="#C2B59B" d="M29.639,87.663c-0.032,0.011-4.014,0.95-6.58-0.692s-4.582-6.676-4.584-6.71l-0.001-0.001
					c0,0,0.001,0,0.001-0.001c0-0.001,0-0.001,0-0.002l0.001,0.001c0.022-0.015,4.095-0.324,6.541,1.349s4.607,6.017,4.623,6.054
					c0.001,0,0.001,0.001,0.002,0.001c-0.001,0-0.001,0-0.002,0.001c0,0.001,0,0.001,0.001,0.002
					C29.64,87.664,29.64,87.663,29.639,87.663z"/>
				<path fill="#C2B59B" d="M30.1,87.479c0.031-0.014,3.5-2.085,4.553-4.666s0.384-6.874,0.371-6.899l0.001-0.001h-0.001
					c0,0,0-0.001-0.001-0.001l-0.001,0.001c-0.027-0.001-3.824,1.577-4.985,4.184c-1.161,2.607,0.048,7.342,0.061,7.381
					c0,0.001,0,0.001-0.001,0.002l0.001-0.001c0,0.001,0,0.001,0.001,0.002C30.099,87.48,30.099,87.48,30.1,87.479z"/>
				<path fill="#C2B59B" d="M33.135,95.269c-0.031,0.014-3.9,1.35-6.631-0.043c-2.731-1.393-5.264-6.233-5.269-6.267l-0.001-0.001
					c0,0,0.001,0,0.001-0.001l0-0.002l0.001,0.001c0.021-0.018,4.042-0.733,6.653,0.7c2.611,1.433,5.227,5.575,5.247,5.611
					c0.001,0,0.001,0.001,0.002,0.001c-0.001,0-0.001,0-0.001,0.001c0,0.001,0.001,0.001,0.001,0.002
					C33.136,95.27,33.136,95.27,33.135,95.269z"/>
				<path fill="#C2B59B" d="M33.575,95.039c0.029-0.017,3.264-2.439,4.039-5.13c0.775-2.692-0.339-6.926-0.355-6.949l0-0.001
					l-0.001,0c0,0,0-0.001,0-0.001l-0.001,0.001c-0.027,0.002-3.645,1.959-4.528,4.686c-0.883,2.727,0.826,7.356,0.844,7.393
					c0,0.001,0,0.001-0.001,0.003c0.001,0,0.001,0,0.001-0.001c0,0.001,0,0.001,0.001,0.002
					C33.574,95.041,33.575,95.04,33.575,95.039z"/>
				<path fill="#C2B59B" d="M33.135,95.269c-0.031,0.014-3.9,1.35-6.631-0.043c-2.731-1.393-5.264-6.233-5.269-6.267l-0.001-0.001
					c0,0,0.001,0,0.001-0.001l0-0.002l0.001,0.001c0.021-0.018,4.042-0.733,6.653,0.7c2.611,1.433,5.227,5.575,5.247,5.611
					c0.001,0,0.001,0.001,0.002,0.001c-0.001,0-0.001,0-0.001,0.001c0,0.001,0.001,0.001,0.001,0.002
					C33.136,95.27,33.136,95.27,33.135,95.269z"/>
				<path fill="#C2B59B" d="M33.575,95.039c0.029-0.017,3.264-2.439,4.039-5.13c0.775-2.692-0.339-6.926-0.355-6.949l0-0.001
					l-0.001,0c0,0,0-0.001,0-0.001l-0.001,0.001c-0.027,0.002-3.645,1.959-4.528,4.686c-0.883,2.727,0.826,7.356,0.844,7.393
					c0,0.001,0,0.001-0.001,0.003c0.001,0,0.001,0,0.001-0.001c0,0.001,0,0.001,0.001,0.002
					C33.574,95.041,33.575,95.04,33.575,95.039z"/>
				<path fill="#C2B59B" d="M37.452,102.564c-0.029,0.017-3.745,1.738-6.623,0.608c-2.878-1.13-5.922-5.737-5.931-5.771L24.897,97.4
					l0.001-0.001c0-0.001,0-0.001,0-0.002l0.001,0.001c0.019-0.02,3.949-1.136,6.706,0.044c2.758,1.18,5.823,5.085,5.848,5.119
					c0.001,0,0.001,0,0.002,0.001c-0.001,0-0.001,0-0.001,0.001c0,0.001,0.001,0.001,0.001,0.002
					C37.453,102.564,37.453,102.564,37.452,102.564z"/>
				<path fill="#C2B59B" d="M37.865,102.29c0.027-0.02,2.987-2.772,3.466-5.552c0.479-2.78-1.087-6.918-1.105-6.94l0-0.001
					c0,0-0.001,0-0.001,0c0,0,0-0.001-0.001-0.001l0,0.001c-0.026,0.005-3.424,2.325-4.01,5.149
					c-0.586,2.824,1.628,7.307,1.65,7.343c0,0.001,0,0.002,0,0.003c0,0,0.001-0.001,0.001-0.001c0.001,0,0.001,0.001,0.001,0.001
					C37.865,102.291,37.865,102.291,37.865,102.29z"/>
				<path fill="#C2B59B" d="M37.452,102.564c-0.029,0.017-3.745,1.738-6.623,0.608c-2.878-1.13-5.922-5.737-5.931-5.771L24.897,97.4
					l0.001-0.001c0-0.001,0-0.001,0-0.002l0.001,0.001c0.019-0.02,3.949-1.136,6.706,0.044c2.758,1.18,5.823,5.085,5.848,5.119
					c0.001,0,0.001,0,0.002,0.001c-0.001,0-0.001,0-0.001,0.001c0,0.001,0.001,0.001,0.001,0.002
					C37.453,102.564,37.453,102.564,37.452,102.564z"/>
				<path fill="#C2B59B" d="M37.865,102.29c0.027-0.02,2.987-2.772,3.466-5.552c0.479-2.78-1.087-6.918-1.105-6.94l0-0.001
					c0,0-0.001,0-0.001,0c0,0,0-0.001-0.001-0.001l0,0.001c-0.026,0.005-3.424,2.325-4.01,5.149
					c-0.586,2.824,1.628,7.307,1.65,7.343c0,0.001,0,0.002,0,0.003c0,0,0.001-0.001,0.001-0.001c0.001,0,0.001,0.001,0.001,0.001
					C37.865,102.291,37.865,102.291,37.865,102.29z"/>
				<path fill="#C2B59B" d="M42.589,109.481c-0.027,0.02-3.55,2.113-6.555,1.256c-3.005-0.857-6.556-5.189-6.569-5.222l-0.001-0.001
					c0,0,0-0.001,0.001-0.001c0-0.001,0-0.001,0-0.001l0.001,0c0.017-0.022,3.814-1.53,6.7-0.614s6.396,4.548,6.424,4.58
					c0.001,0,0.002,0,0.003,0.001c0,0-0.001,0.001-0.001,0.001c0,0.001,0,0.001,0.001,0.002
					C42.591,109.481,42.59,109.481,42.589,109.481z"/>
				<path fill="#C2B59B" d="M42.972,109.165c0.025-0.023,2.67-3.081,2.833-5.925c0.163-2.844-1.858-6.85-1.879-6.87l0-0.001
					c0,0-0.001,0-0.001,0c0,0-0.001-0.001-0.001-0.001l-0.001,0.001c-0.026,0.007-3.162,2.672-3.433,5.569
					c-0.271,2.897,2.453,7.193,2.479,7.227c0,0.001,0,0.002,0,0.003c0,0,0.001-0.001,0.001-0.001c0,0,0.001,0.001,0.001,0.002
					C42.972,109.166,42.972,109.166,42.972,109.165z"/>
			</g>
		</g>
	</g>
	<g id="Layer_7_1_">
		<g>
			<g>
				<g>
					<g>
						<g>
							<path fill="none" stroke="#C2B59B" stroke-width="2" stroke-miterlimit="10" d="M73.198,103.815H62.826
								c-2.431,0-4.7-2.593-4.7-5.024c0,0,0-27.551,0-38.895c0-12.479,7.941-8.427,7.941-29.82v-6.158"/>
							<path fill="none" stroke="#C2B59B" stroke-width="2" stroke-miterlimit="10" d="M70.93,103.815h10.372
								c2.431,0,3.89-2.593,3.89-5.024c0,0,0-27.551,0-38.895c0-12.479-7.617-8.427-7.617-29.82v-7.131"/>
							
								<line fill="none" stroke="#C2B59B" stroke-width="2" stroke-miterlimit="10" x1="58.127" y1="62.489" x2="85.191" y2="62.489"/>
						</g>
						<path fill="none" stroke="#C2B59B" stroke-width="2" stroke-miterlimit="10" d="M77.574,22.945v-4.052
							c0-0.81-0.648-1.621-1.621-1.621h-8.589c-0.81,0-1.459,0.81-1.459,1.621v4.052H77.574z"/>
					</g>
				</g>
			</g>
		</g>
	</g>
	<g id="Layer_7_2_">
		<g>
			<g>
				<g>
					<g>
						<g>
							<path fill="none" stroke="#C2B59B" stroke-width="2" stroke-miterlimit="10" d="M117.198,103.815h-10.372
								c-2.431,0-4.7-2.593-4.7-5.024c0,0,0-27.551,0-38.895c0-12.479,7.941-8.427,7.941-29.82v-6.158"/>
							<path fill="none" stroke="#C2B59B" stroke-width="2" stroke-miterlimit="10" d="M114.93,103.815h10.372
								c2.431,0,3.89-2.593,3.89-5.024c0,0,0-27.551,0-38.895c0-12.479-7.617-8.427-7.617-29.82v-7.131"/>
							
								<line fill="none" stroke="#C2B59B" stroke-width="2" stroke-miterlimit="10" x1="102.127" y1="62.489" x2="129.191" y2="62.489"/>
						</g>
						<path fill="none" stroke="#C2B59B" stroke-width="2" stroke-miterlimit="10" d="M121.574,22.945v-4.052
							c0-0.81-0.648-1.621-1.621-1.621h-8.589c-0.81,0-1.459,0.81-1.459,1.621v4.052H121.574z"/>
					</g>
				</g>
			</g>
		</g>
	</g>
	<g id="Layer_7">
		<g>
			<g>
				<g>
					<g>
						<g>
							<path fill="#FFFFFF" stroke="#C2B59B" stroke-width="2" stroke-miterlimit="10" d="M95.067,106.815H83.898
								c-2.618,0-5.061-2.792-5.061-5.41c0,0,0-29.667,0-41.883c0-13.438,8.551-9.075,8.551-32.11V20.78"/>
							<path fill="#FFFFFF" stroke="#C2B59B" stroke-width="2" stroke-miterlimit="10" d="M92.624,106.815h11.169
								c2.618,0,4.188-2.792,4.188-5.41c0,0,0-29.667,0-41.883c0-13.438-8.202-9.075-8.202-32.11v-7.679"/>
							<polyline fill="#C2B59B" points="107.981,93.014 107.981,62.314 78.837,62.314 78.837,93.514 107.981,93.514 							"/>
							<polyline fill="#C2B59B" points="128.922,90.185 128.922,62.314 99.779,62.314 99.779,90.639 128.922,90.639 							"/>
							<polyline fill="#C2B59B" points="87.77,90.185 87.77,62.314 58.627,62.314 58.627,90.639 87.77,90.639 							"/>
						</g>
						<path fill="#FFFFFF" stroke="#C2B59B" stroke-width="2" stroke-miterlimit="10" d="M99.779,19.733V15.37
							c0-0.873-0.698-1.745-1.745-1.745h-9.249c-0.873,0-1.571,0.873-1.571,1.745v4.363H99.779z"/>
					</g>
				</g>
			</g>
		</g>
	</g>
	<line fill="none" stroke="#FFFFFF" stroke-miterlimit="10" x1="109.463" y1="60.722" x2="109.463" y2="93.139"/>
	<line fill="none" stroke="#FFFFFF" stroke-miterlimit="10" x1="77.36" y1="64.866" x2="77.36" y2="90.995"/>
	<g>
		<path fill="#C2B59B" d="M213.797,54.551c0-1.296-0.054-2.754-0.432-3.888c-0.378-1.08-0.973-1.836-1.891-1.836
			c-1.512,0.054-1.998,1.62-1.998,3.942c0,1.35,0.595,2.754,1.458,4.266c0.864,1.512,1.998,3.078,3.132,4.752
			c1.351,1.998,2.7,4.05,3.727,6.048s1.728,4.05,1.728,6.21c0,2.646-0.432,5.13-1.674,6.966c-1.242,1.836-3.24,3.024-6.426,3.024
			c-3.727,0-5.832-1.404-7.021-3.564c-1.188-2.16-1.458-5.022-1.458-7.992l5.725-0.54c0,1.674,0.054,3.348,0.485,4.59
			c0.379,1.296,1.026,2.16,2.269,2.16c1.728,0,2.376-1.836,2.376-4.374c0-1.296-0.648-2.808-1.512-4.374
			c-0.486-0.756-0.973-1.566-1.513-2.376c-1.134-1.62-2.376-3.456-3.672-5.454s-2.268-4.05-2.862-6.156
			c-0.323-1.026-0.485-2.106-0.485-3.186c0-2.16,0.485-4.482,1.728-6.264c1.242-1.728,3.133-2.97,5.887-3.024
			c3.51-0.054,5.562,1.404,6.695,3.51c1.135,2.16,1.458,4.806,1.458,7.021L213.797,54.551z"/>
		<path fill="#C2B59B" d="M222.652,43.913h13.338v5.994h-7.506v10.422h5.4v6.372h-5.4v10.908h7.506v5.994h-13.338V43.913z"/>
		<path fill="#C2B59B" d="M239.229,43.913h13.338v5.994h-7.506v10.422h5.4v6.372h-5.4v10.908h7.506v5.994h-13.338V43.913z"/>
		<path fill="#C2B59B" d="M262.502,83.603l5.994-39.69h7.128l5.994,39.69h-5.67l-1.08-8.1h-5.616l-1.08,8.1H262.502z
			 M272.384,56.819l-0.162-1.026h-0.323l-0.162,1.026l-1.674,12.528h3.996L272.384,56.819z"/>
		<path fill="#C2B59B" d="M284.317,43.913h5.832v34.291h7.722v5.4h-13.554V43.913z"/>
		<path fill="#C2B59B" d="M300.247,43.913h5.832v34.291h7.722v5.4h-13.554V43.913z"/>
		<path fill="#C2B59B" d="M339.666,75.449c-0.054,1.62-0.378,3.078-0.972,4.32c-0.486,1.08-1.242,2.106-2.322,2.916
			c-1.08,0.864-2.538,1.35-4.481,1.35c-1.944,0-3.456-0.486-4.536-1.35c-1.08-0.81-1.782-1.836-2.269-2.916
			c-0.594-1.242-0.918-2.7-0.972-4.32V52.066c0.054-1.566,0.378-3.024,0.972-4.266c0.486-1.08,1.188-2.16,2.269-2.97
			s2.592-1.35,4.536-1.35c1.943,0,3.401,0.54,4.481,1.35s1.836,1.89,2.322,2.97c0.594,1.242,0.918,2.7,0.972,4.266V75.449z
			 M333.834,52.066c0-1.08-0.216-1.836-0.756-2.484c-0.27-0.27-0.702-0.432-1.188-0.432c-1.026,0-1.513,0.756-1.729,1.458
			c-0.162,0.432-0.216,0.918-0.216,1.458v23.382c0,1.134,0.27,1.89,0.81,2.484c0.271,0.27,0.648,0.432,1.135,0.432
			c1.025,0,1.512-0.648,1.728-1.458c0.162-0.378,0.216-0.864,0.216-1.458V52.066z"/>
		<path fill="#C2B59B" d="M359.105,43.913v31.536c-0.054,1.62-0.378,3.078-0.972,4.32c-0.486,1.08-1.242,2.106-2.322,2.916
			c-1.08,0.864-2.538,1.35-4.482,1.35c-1.943,0-3.456-0.486-4.536-1.35c-1.08-0.81-1.781-1.836-2.268-2.916
			c-0.594-1.242-0.918-2.7-0.972-4.32V43.913h5.832v31.536c0,1.134,0.27,1.89,0.81,2.484c0.271,0.27,0.648,0.432,1.134,0.432
			c1.026,0,1.513-0.648,1.729-1.458c0.162-0.378,0.216-0.864,0.216-1.458V43.913H359.105z"/>
		<path fill="#C2B59B" d="M373.793,83.603l-3.023-16.74h-1.566v16.74h-5.832v-39.69h5.832c6.966,0,9.937,3.942,9.937,11.448
			c0,3.942-1.026,7.506-3.24,9.019l3.726,19.224H373.793z M369.203,61.463c0.81,0,1.89-0.108,2.754-0.864s1.566-2.214,1.566-5.022
			s-0.702-4.32-1.566-5.076s-1.944-0.81-2.754-0.81V61.463z"/>
		<path fill="#C2B59B" d="M389.56,83.603l5.994-39.69h7.128l5.994,39.69h-5.67l-1.08-8.1h-5.616l-1.08,8.1H389.56z M399.441,56.819
			l-0.162-1.026h-0.323l-0.162,1.026l-1.674,12.528h3.995L399.441,56.819z"/>
		<path fill="#C2B59B" d="M418.558,83.603h-4.536l-5.346-39.69h5.399l2.322,20.628l0.108,1.296h0.432l0.162-1.296l2.484-20.628
			h4.212l2.483,20.628l0.162,1.296h0.433l0.107-1.296l2.322-20.628h5.4l-5.347,39.69h-4.536l-2.7-18.792l-0.323-2.322h-0.216
			l-0.324,2.322L418.558,83.603z"/>
		<path fill="#C2B59B" d="M435.892,83.603l5.994-39.69h7.128l5.994,39.69h-5.67l-1.08-8.1h-5.616l-1.08,8.1H435.892z
			 M445.773,56.819l-0.162-1.026h-0.323l-0.162,1.026l-1.674,12.528h3.995L445.773,56.819z"/>
		<path fill="#C2B59B" d="M468.129,83.603l-3.023-16.74h-1.566v16.74h-5.832v-39.69h5.832c6.966,0,9.937,3.942,9.937,11.448
			c0,3.942-1.026,7.506-3.24,9.019l3.726,19.224H468.129z M463.539,61.463c0.81,0,1.89-0.108,2.754-0.864s1.566-2.214,1.566-5.022
			s-0.702-4.32-1.566-5.076s-1.944-0.81-2.754-0.81V61.463z"/>
		<path fill="#C2B59B" d="M477.2,83.603v-39.69h4.59c5.4,0,8.316,1.08,9.882,4.104c1.513,3.024,1.729,7.992,1.729,15.768
			c0,7.776-0.216,12.69-1.729,15.714c-1.565,3.024-4.481,4.104-9.882,4.104H477.2z M483.032,77.771c1.998,0,3.132-0.216,3.726-2.16
			c0.271-0.918,0.486-2.322,0.54-4.212c0.055-1.89,0.055-4.428,0.055-7.668c0-3.24,0-5.778-0.055-7.668
			c-0.054-1.836-0.27-3.24-0.54-4.212c-0.594-1.89-1.728-2.106-3.726-2.106V77.771z"/>
		<path fill="#C2B59B" d="M506.954,54.551c0-1.296-0.054-2.754-0.432-3.888c-0.378-1.08-0.973-1.836-1.891-1.836
			c-1.512,0.054-1.998,1.62-1.998,3.942c0,1.35,0.595,2.754,1.458,4.266c0.864,1.512,1.998,3.078,3.133,4.752
			c1.35,1.998,2.699,4.05,3.726,6.048s1.728,4.05,1.728,6.21c0,2.646-0.432,5.13-1.674,6.966c-1.242,1.836-3.24,3.024-6.426,3.024
			c-3.727,0-5.832-1.404-7.021-3.564c-1.188-2.16-1.458-5.022-1.458-7.992l5.725-0.54c0,1.674,0.054,3.348,0.485,4.59
			c0.379,1.296,1.026,2.16,2.269,2.16c1.728,0,2.376-1.836,2.376-4.374c0-1.296-0.648-2.808-1.512-4.374
			c-0.486-0.756-0.973-1.566-1.513-2.376c-1.134-1.62-2.376-3.456-3.672-5.454s-2.268-4.05-2.862-6.156
			c-0.323-1.026-0.485-2.106-0.485-3.186c0-2.16,0.485-4.482,1.728-6.264c1.242-1.728,3.133-2.97,5.887-3.024
			c3.51-0.054,5.562,1.404,6.695,3.51c1.135,2.16,1.458,4.806,1.458,7.021L506.954,54.551z"/>
	</g>
</g>
</svg>
